Sample	FastQC_mqc-generalstats-fastqc-percent_duplicates	FastQC_mqc-generalstats-fastqc-percent_gc	FastQC_mqc-generalstats-fastqc-avg_sequence_length	FastQC_mqc-generalstats-fastqc-percent_fails	FastQC_mqc-generalstats-fastqc-total_sequences
HepG2_BamH1_R1_001	17.622253932925673	31.0	73.1862869774768	18.181818181818183	6730347.0
HepG2_BamH1_R2_001	19.52050063830177	33.0	73.23114068264236	18.181818181818183	6730347.0
HepaRG_L001_R1_001	37.14604515203075	30.0	59.00662261591499	45.45454545454545	5465514.0
HepaRG_L001_R2_001	37.515011572094316	31.0	59.075318991040916	45.45454545454545	5465514.0
LIb7_S6_L001_R1_001	12.553033266899476	31.0	70.37985963790618	27.27272727272727	4686023.0
LIb7_S6_L001_R2_001	15.105966744959417	32.0	70.49233859927705	27.27272727272727	4686023.0
LIb8_S7_L001_R1_001	14.981629370798785	30.0	66.42729552799665	27.27272727272727	2865539.0
LIb8_S7_L001_R2_001	16.198927820677767	31.0	66.60716046789103	27.27272727272727	2865539.0
Lib10_S4_L001_R1_001	17.03435706440611	33.0	69.89734650227815	27.27272727272727	2059998.0
Lib10_S4_L001_R2_001	18.438814472834224	33.0	69.91639069552495	27.27272727272727	2059998.0
Lib11_S2_L001_R1_001	18.25383409718569	30.0	74.05170443553648	9.090909090909092	8001828.0
Lib11_S2_L001_R2_001	18.236144525852552	31.0	74.09898875606923	9.090909090909092	8001828.0
Lib12_S5_L001_R1_001	57.36638598418355	35.0	52.27512386666217	63.63636363636363	5340420.0
Lib12_S5_L001_R2_001	58.2595965537912	35.0	52.0467665464514	63.63636363636363	5340420.0
Lib1_S1_L001_R1_001	27.735895639775237	34.0	72.28134745897768	27.27272727272727	3482555.0
Lib1_S1_L001_R2_001	25.50464245455241	35.0	72.35209580322493	27.27272727272727	3482555.0
Lib2_S2_L001_R1_001	15.685990840400123	31.0	70.85523717190651	27.27272727272727	3533787.0
Lib2_S2_L001_R2_001	16.830037027385785	32.0	70.97896958701811	18.181818181818183	3533787.0
Lib4_S3_L001_R1_001	13.171465056895045	31.0	67.88726558967092	27.27272727272727	2253367.0
Lib4_S3_L001_R2_001	14.19318089681066	32.0	68.04634753238155	27.27272727272727	2253367.0
Lib5_S4_L001_R1_001	11.209332986816051	29.0	71.90778659326254	18.181818181818183	3789796.0
Lib5_S4_L001_R2_001	13.669421166498125	31.0	71.97969758794405	18.181818181818183	3789796.0
Lib6_S5_L001_R1_001	6.884598790488397	28.0	72.50837835082021	18.181818181818183	4854595.0
Lib6_S5_L001_R2_001	8.739117313820174	30.0	72.572361649118	18.181818181818183	4854595.0
Lib8_S2_L001_R1_001	79.94944420707593	31.0	54.371184589383745	54.54545454545454	3793956.0
Lib8_S2_L001_R2_001	84.83353999002084	32.0	54.30461001656319	54.54545454545454	3793956.0
Lib9_S3_L001_R1_001	37.14604515203075	30.0	59.00662261591499	45.45454545454545	5465514.0
Lib9_S3_L001_R2_001	37.515011572094316	31.0	59.075318991040916	45.45454545454545	5465514.0
MCF7_R1_001	22.473343532161323	31.0	72.33254113207481	18.181818181818183	6886718.0
NormalLiver_R1_001	12.229363369482982	31.0	67.7531439237826	27.27272727272727	2292915.0
NormalLiver_R2_001	13.376053611851106	32.0	67.80691216202956	27.27272727272727	2292915.0
