12.298140011965046, 36.20854406957392
22.99445239201208, 36.20854406957392
33.69076477205911, 33.299136238409574
44.387077152106144, 36.20854406957392
55.08338953215315, 47.84617539423107
65.77970191220018, 56.57439888772387
76.47601429224721, 65.30262238121668
87.17232667229425, 76.94025370587383
97.86863905234128, 88.57788503053098
108.56495143238828, 100.21551635518813
119.26126381243529, 108.94373984868116
127.28349809747056, 114.76255551100962
135.30573238250582, 129.30959466683112
146.00204476255288, 135.1284103291598
156.6983571425999, 149.6754494849813
167.39466952264695, 149.6754494849813
178.09098190269395, 152.58485731614542
188.78729428274096, 155.49426514730976
196.80952856777623, 161.31308080963845
204.8317628528115, 193.31656695244556
215.52807523285855, 204.9541982771027
226.22438761290556, 216.59182960175985
236.92069999295262, 228.229460926417
247.61701237299962, 239.86709225107415
258.31332475304663, 245.68590791340284
269.0096371330937, 257.32353923806
279.7059495131407, 268.96117056271714
287.72818379817596, 271.8705783938815
295.75041808321123, 283.50820971853864
306.44673046325823, 292.23643321203144
314.46896474829356, 318.4211036925101
322.4911990333288, 332.9681428483316
330.5134333183641, 341.6963663418244
335.86158950838757, 353.33399766648154
343.88382379342283, 402.7939307962745
354.58013617346984, 408.61274645860317
365.2764485535169, 420.2503777832603
375.97276093356396, 431.88800910791747
386.6690733136109, 440.6162326014103
397.36538569365797, 446.43504826373896
408.06169807370503, 446.43504826373896
418.758010453752, 452.2538639260674
429.45432283379904, 460.98208741956046
440.1506352138461, 472.6197187442176
450.84694759389316, 484.25735006887476
461.5432599739401, 495.8949813935319
472.23957235398717, 501.71379705586037
482.93588473403423, 513.3514283805175
493.6321971140812, 524.9890597051749
504.32850949412824, 536.626691029832
515.0248218741754, 539.5360988609962
525.7211342542223, 539.5360988609962
536.4174466342693, 539.5360988609962
547.1137590143164, 539.5360988609962
557.8100713943634, 539.5360988609962
565.8323056793986, 533.7172831986677
573.8545399644338, 478.43853440654607
584.550852344481, 466.8009030818889
595.2471647245279, 455.16327175723177
605.9434771045751, 446.43504826373896
613.9657113896103, 440.6162326014103
621.9879456746455, 408.61274645860317
632.6842580546925, 399.88452296511036
643.3805704347396, 385.33748380928887
654.0768828147866, 379.5186681469602
662.0991170998218, 324.2399193548388
670.1213513848572, 312.6022880301814
680.8176637649042, 303.8740645366886
691.5139761449511, 268.96117056271714
702.2102885249983, 263.14235490038845
710.2325228100335, 236.95768441991004
718.2547570950687, 222.41064526408854
728.9510694751157, 210.7730139394314
739.6473818551628, 199.13538261477424
750.3436942352098, 187.49775129011687
761.0400066152567, 175.86011996545972
771.7363189953039, 170.04130430313126
782.4326313753509, 158.4036729784741
793.128943755398, 146.76604165381696
803.825256135445, 140.94722599148827
814.5215685154919, 129.30959466683112
825.2178808955391, 117.67196334217397
835.9141932755861, 108.94373984868116
846.610505655633, 108.94373984868116
857.3068180356802, 106.03433201751682
868.0031304157271, 94.39670069285967
878.6994427957743, 88.57788503053098
889.3957551758213, 82.75906936820252
900.0920675558682, 79.84966153703817
910.7883799359154, 79.84966153703817
921.4846923159623, 79.84966153703817
932.1810046960093, 79.84966153703817
942.8773170760564, 79.84966153703817
953.5736294561034, 79.84966153703817
964.2699418361503, 79.84966153703817
974.9662542161975, 79.84966153703817
985.6625665962445, 79.84966153703817
996.3588789762914, 79.84966153703817
1007.0551913563386, 79.84966153703817
1017.7515037363855, 79.84966153703817
1028.4478161164325, 79.84966153703817
1039.1441284964797, 79.84966153703817
1049.8404408765266, 79.84966153703817
1060.5367532565735, 79.84966153703817
1071.2330656366207, 79.84966153703817
1081.9293780166677, 79.84966153703817
1092.6256903967146, 79.84966153703817
1103.3220027767618, 79.84966153703817
1114.0183151568087, 79.84966153703817
1124.7146275368557, 79.84966153703817
1135.4109399169029, 79.84966153703817
1146.1072522969498, 79.84966153703817
1156.8035646769968, 79.84966153703817
1167.499877057044, 79.84966153703817
1178.1961894370909, 82.75906936820252
1188.8925018171378, 85.66847719936686
1199.588814197185, 82.75906936820252
1210.285126577232, 79.84966153703817
1220.9814389572791, 71.12143804354537
1231.677751337326, 59.48380671888822
1242.374063717373, 56.57439888772387
1253.0703760974202, 56.57439888772387
1263.7666884774671, 56.57439888772387
1274.463000857514, 56.57439888772387
1285.1593132375613, 56.57439888772387
1295.8556256176082, 56.57439888772387
1306.5519379976552, 53.66499105655953
1314.5741722826906, 50.755583225395185
1322.5964065677258, 39.117951900738035
1333.2927189477728, 33.299136238409574
1343.9890313278197, 36.20854406957392
1354.6853437078669, 39.117951900738035
1365.3816560879138, 39.117951900738035
1376.077968467961, 39.117951900738035
1386.774280848008, 39.117951900738035
1397.470593228055, 39.117951900738035
1408.166905608102, 39.117951900738035
1418.863217988149, 39.117951900738035
1429.559530368196, 39.117951900738035
1440.2558427482431, 39.117951900738035
1450.95215512829, 33.299136238409574
1461.648467508337, 36.20854406957392
1472.3447798883842, 42.02735973190238
1483.0410922684312, 53.66499105655953
1493.737404648478, 56.57439888772387
1504.4337170285253, 56.57439888772387
1515.1300294085722, 56.57439888772387
1525.8263417886192, 56.57439888772387
1536.5226541686663, 59.48380671888822
1547.2189665487133, 71.12143804354537
1557.9152789287602, 79.84966153703817
1568.6115913088074, 79.84966153703817
1579.3079036888544, 85.66847719936686
1590.0042160689013, 91.48729286169532
1600.7005284489485, 100.21551635518813
1611.3968408289954, 108.94373984868116
1622.0931532090424, 108.94373984868116
1632.7894655890896, 108.94373984868116
1643.4857779691365, 108.94373984868116
1654.1820903491835, 108.94373984868116
1662.204324634219, 114.76255551100962
1670.226558919254, 126.40018683566677
1680.922871299301, 135.1284103291598
1691.6191836793482, 146.76604165381696
1702.3154960593952, 149.6754494849813
1713.0118084394421, 149.6754494849813
1723.7081208194893, 149.6754494849813
1731.7303551045245, 143.8566338226526
1739.7525893895597, 132.21900249799546
1750.448901769607, 135.1284103291598
1761.1452141496538, 146.76604165381696
1771.8415265297008, 149.6754494849813
1782.537838909748, 149.6754494849813
1793.234151289795, 149.6754494849813
1803.9304636698419, 149.6754494849813
1814.626776049889, 149.6754494849813
1825.323088429936, 149.6754494849813
1836.019400809983, 149.6754494849813
1844.0416350950184, 149.6754494849813
1852.0638693800536, 135.1284103291598
1862.7601817601005, 132.21900249799546
1873.4564941401475, 132.21900249799546
1884.1528065201946, 132.21900249799546
1894.8491189002416, 132.21900249799546
1905.5454312802885, 132.21900249799546
1916.2417436603355, 132.21900249799546
1926.938056040383, 126.40018683566677
1937.6343684204298, 123.49077900450266
1948.3306808004768, 111.8531476798455
1959.0269931805237, 108.94373984868116
1969.7233055605707, 108.94373984868116
1980.4196179406176, 108.94373984868116
1991.115930320665, 108.94373984868116
2001.812242700712, 103.12492418635247
2012.508555080759, 94.39670069285967
2023.2048674608059, 85.66847719936686
2033.9011798408528, 79.84966153703817
2044.5974922208998, 82.75906936820252
2055.293804600947, 88.57788503053098
2065.990116980994, 103.12492418635247
2076.686429361041, 108.94373984868116
2087.382741741088, 108.94373984868116
2098.079054121135, 108.94373984868116
2108.7753665011824, 108.94373984868116
2119.4716788812293, 108.94373984868116
2130.1679912612763, 117.67196334217397
2140.864303641323, 129.30959466683112
2151.56061602137, 140.94722599148827
2162.256928401417, 149.6754494849813
2170.2791626864528, 155.49426514730976
2178.301396971488, 170.04130430313126
2188.997709351535, 172.9507121342956
2199.694021731582, 172.9507121342956
2210.390334111629, 172.9507121342956
2221.0866464916758, 172.9507121342956
2231.7829588717227, 172.9507121342956
2242.47927125177, 172.9507121342956
2253.175583631817, 172.9507121342956
2263.871896011864, 172.9507121342956
2274.568208391911, 172.9507121342956
2285.264520771958, 172.9507121342956
2295.9608331520053, 172.9507121342956
2306.6571455320523, 172.9507121342956
2317.353457912099, 172.9507121342956
2328.049770292146, 172.9507121342956
2338.746082672193, 172.9507121342956
2349.44239505224, 172.9507121342956
2360.1387074322874, 172.9507121342956
2370.8350198123344, 172.9507121342956
2381.5313321923813, 172.9507121342956
2392.2276445724283, 172.9507121342956
2402.9239569524752, 167.1318964719669
2413.620269332522, 158.4036729784741
2424.3165817125696, 146.76604165381696
2435.0128940926165, 135.1284103291598
2445.7092064726635, 132.21900249799546
2456.4055188527104, 132.21900249799546
2467.1018312327574, 129.30959466683112
2477.7981436128043, 117.67196334217397
2488.4944559928517, 108.94373984868116
2499.1907683728987, 108.94373984868116
2509.8870807529456, 106.03433201751682
2520.5833931329926, 100.21551635518813
2531.2797055130395, 88.57788503053098
2541.9760178930865, 76.94025370587383
2552.672330273134, 65.30262238121668
2563.368642653181, 56.57439888772387
2574.0649550332278, 56.57439888772387
2584.7612674132747, 56.57439888772387
2595.4575797933217, 56.57439888772387
2606.153892173369, 56.57439888772387
2616.850204553416, 47.84617539423107
2627.546516933463, 36.20854406957392
2638.24282931351, 30.38972840724523
2648.939141693557, 18.75209708258808
2659.635454073604, 15.842689251423735
2670.331766453651, 15.842689251423735
2681.028078833698, 15.842689251423735
2691.724391213745, 15.842689251423735
2702.420703593792, 15.842689251423735
2713.117015973839, 15.842689251423735
2723.813328353886, 15.842689251423735
2734.5096407339333, 15.842689251423735
2745.2059531139803, 15.842689251423735
2755.9022654940272, 15.842689251423735
2766.598577874074, 15.842689251423735
2777.294890254121, 15.842689251423735
2787.991202634168, 15.842689251423735
2798.6875150142155, 15.842689251423735
2809.3838273942624, 15.842689251423735
2820.0801397743094, 15.842689251423735
2830.7764521543563, 15.842689251423735
2841.4727645344033, 15.842689251423735
2852.16907691445, 15.842689251423735
2862.8653892944976, 15.842689251423735
2873.5617016745446, 15.842689251423735
2884.2580140545915, 15.842689251423735
2894.9543264346385, 15.842689251423735
2905.6506388146854, 15.842689251423735
2916.346951194733, 15.842689251423735
2927.0432635747798, 15.842689251423735
2937.7395759548267, 15.842689251423735
2948.4358883348737, 15.842689251423735
2959.1322007149206, 15.842689251423735
2969.8285130949675, 15.842689251423735
2980.524825475015, 15.842689251423735
2991.221137855062, 15.842689251423735
3001.917450235109, 15.842689251423735
3012.613762615156, 15.842689251423735
3023.3100749952027, 15.842689251423735
3034.0063873752497, 15.842689251423735
3044.702699755297, 15.842689251423735
3055.399012135344, 18.75209708258808
3066.095324515391, 30.38972840724523
3076.791636895438, 33.299136238409574
3087.487949275485, 36.20854406957392
3098.184261655532, 42.02735973190238
3108.8805740355792, 50.755583225395185
3119.576886415626, 56.57439888772387
3130.273198795673, 59.48380671888822
3140.96951117572, 56.57439888772387
3151.665823555767, 56.57439888772387
3162.362135935814, 56.57439888772387
3170.3843702208496, 62.393214550052335
3178.406604505885, 76.94025370587383
3189.102916885932, 79.84966153703817
3199.7992292659787, 79.84966153703817
3210.4955416460257, 85.66847719936686
3221.1918540260726, 91.48729286169532
3231.88816640612, 100.21551635518813
3242.584478786167, 108.94373984868116
3253.280791166214, 108.94373984868116
3263.977103546261, 111.8531476798455
3274.673415926308, 123.49077900450266
3285.369728306355, 135.1284103291598
3296.066040686402, 146.76604165381696
3306.762353066449, 152.58485731614542
3317.458665446496, 164.22248864080257
3328.154977826543, 172.9507121342956
3336.1772121115782, 178.76952779662406
3341.5253683016017, 202.04479044593836
3349.547602586637, 216.59182960175985
3360.2439149666843, 228.229460926417
3370.9402273467313, 242.7765000822385
3381.636539726778, 251.5047235757313
3392.332852106825, 263.14235490038845
3403.029164486872, 271.8705783938815
3413.725476866919, 280.5988018873743
3424.4217892469665, 292.23643321203144
3435.1181016270134, 303.8740645366886
3445.8144140070603, 312.6022880301814
3453.8366482920956, 318.4211036925101
3459.184804482119, 347.5151820041531
3467.2070387671542, 359.1528133288102
3477.9033511472016, 367.88103682230303
3488.5996635272486, 382.4280759781245
3496.621897812284, 388.246891640453
3504.644132097319, 420.2503777832603
3515.340444477366, 423.15978561442466
3526.036756857413, 428.9786012767531
3536.73306923746, 428.9786012767531
3544.7553035224955, 428.9786012767531
3552.7775378075307, 443.5256404325746
3563.4738501875777, 449.3444560949033
3571.496084472613, 458.0726795883961
3579.518318757648, 469.71031091305326
3590.214631137695, 472.6197187442176
3600.910943517742, 472.6197187442176
3611.6072558977894, 466.8009030818889
3622.3035682778363, 455.16327175723177
3632.9998806578833, 449.3444560949033
3643.6961930379302, 446.43504826373896
3654.392505417977, 446.43504826373896
3665.0888177980246, 437.70682477024593
3675.7851301780715, 426.0691934455888
3686.4814425581185, 414.43156212093163
3697.1777549381654, 405.7033386274388
3707.8740673182124, 396.975115133946
3718.5703796982593, 385.33748380928887
3729.2666920783067, 373.6998524846317
3739.9630044583537, 364.9716289911387
3750.6593168384006, 356.2434054976459
3761.3556292184476, 344.60577417298873
3772.0519415984945, 332.9681428483316
3782.7482539785415, 321.33051152367443
3793.444566358589, 312.6022880301814
3804.140878738636, 312.6022880301814
3814.8371911186828, 312.6022880301814
3825.5335034987297, 312.6022880301814
3836.2298158787767, 309.6928801990173
3846.9261282588236, 303.8740645366886
3857.622440638871, 292.23643321203144
3868.318753018918, 289.3270253808671
3879.015065398965, 289.3270253808671
3889.711377779012, 289.3270253808671
3900.407690159059, 289.3270253808671
3911.1040025391057, 289.3270253808671
3921.800314919153, 289.3270253808671
3932.4966272992, 289.3270253808671
3943.192939679247, 289.3270253808671
3953.889252059294, 289.3270253808671
3961.9114863443297, 289.3270253808671
3969.9337206293644, 303.8740645366886
3980.6300330094114, 312.6022880301814
3991.3263453894583, 327.1493271860029
4002.0226577695053, 332.9681428483316
4012.718970149553, 344.60577417298873
4023.4152825296, 356.2434054976459
4034.111594909647, 364.9716289911387
4042.1338291946818, 370.7904446534674
4050.1560634797174, 382.4280759781245
4060.8523758597644, 382.4280759781245
4071.5486882398113, 382.4280759781245
4082.2450006198583, 382.4280759781245
4092.941312999905, 382.4280759781245
4103.637625379952, 382.4280759781245
4114.333937759999, 382.4280759781245
4125.030250140046, 373.6998524846317
4135.7265625200935, 364.9716289911387
4146.42287490014, 359.1528133288102
4157.119187280187, 359.1528133288102
4167.815499660234, 359.1528133288102
4178.511812040281, 359.1528133288102
4189.208124420328, 359.1528133288102
4199.904436800375, 359.1528133288102
4210.600749180422, 356.2434054976459
4221.297061560469, 347.5151820041531
4231.993373940516, 338.78695851066004
4242.689686320563, 327.1493271860029
4253.38599870061, 292.23643321203144
4264.082311080658, 289.3270253808671
4274.778623460705, 289.3270253808671
4285.474935840752, 286.417617549703
4296.171248220799, 274.77998622504583
4306.8675606008455, 263.14235490038845
4317.5638729808925, 251.5047235757313
4328.260185360939, 245.68590791340284
4338.956497740986, 234.0482765887457
4349.652810121033, 222.41064526408854
4360.34912250108, 210.7730139394314
4371.045434881127, 199.13538261477424
4381.741747261175, 196.2259747836099
4392.438059641222, 196.2259747836099
4403.134372021269, 204.9541982771027
4413.830684401316, 213.6824217705955
4424.526996781363, 213.6824217705955
4435.22330916141, 210.7730139394314
4445.919621541457, 199.13538261477424
4456.615933921504, 196.2259747836099
4467.312246301551, 196.2259747836099
4478.008558681598, 196.2259747836099
4488.704871061645, 196.2259747836099
4499.4011834416915, 204.9541982771027
4510.097495821739, 213.6824217705955
4520.793808201786, 210.7730139394314
4531.490120581833, 204.9541982771027
4542.18643296188, 202.04479044593836
4552.882745341927, 210.7730139394314
4563.579057721974, 219.5012374329242
4574.275370102021, 219.5012374329242
4584.971682482068, 219.5012374329242
4595.667994862115, 219.5012374329242
4606.364307242162, 219.5012374329242
4617.060619622209, 219.5012374329242
4627.756932002256, 222.41064526408854
4638.453244382304, 228.229460926417
4649.149556762351, 239.86709225107415
4659.8458691423975, 242.7765000822385
4670.5421815224445, 242.7765000822385
4681.238493902491, 245.68590791340284
4689.260728187526, 254.41413140689565
4697.282962472562, 266.0517627315528
4707.979274852609, 266.0517627315528
4718.675587232656, 266.0517627315528
4729.371899612703, 271.8705783938815
4740.06821199275, 280.5988018873743
4750.764524372797, 292.23643321203144
4761.460836752844, 303.8740645366886
4772.157149132891, 309.6928801990173
4782.853461512938, 312.6022880301814
4793.549773892985, 312.6022880301814
4804.246086273032, 321.33051152367443
4814.942398653079, 330.05873501716724
4825.638711033126, 335.8775506794959
4836.335023413173, 335.8775506794959
4847.03133579322, 335.8775506794959
4857.727648173267, 335.8775506794959
4868.423960553314, 338.78695851066004
4879.120272933362, 350.4245898353172
4889.816585313409, 359.1528133288102
4900.512897693456, 359.1528133288102
4911.209210073503, 359.1528133288102
4921.90552245355, 359.1528133288102
4932.6018348335965, 356.2434054976459
4943.2981472136435, 350.4245898353172
4953.99445959369, 338.78695851066004
4964.690771973737, 335.8775506794959
4975.387084353784, 335.8775506794959
4986.083396733831, 338.78695851066004
4996.779709113878, 350.4245898353172
5007.476021493926, 362.06222115997457
5015.498255778961, 382.4280759781245
5023.5204900639965, 402.7939307962745
5034.216802444043, 408.61274645860317
5044.91311482409, 420.2503777832603
5055.609427204137, 428.9786012767531
5063.631661489173, 475.5291265753817
5071.653895774208, 495.8949813935319
5079.676130059243, 498.80438922469625
5085.024286249267, 510.4420205493534
5093.046520534302, 539.5360988609962
5103.742832914349, 548.2643223544892
5114.4391452943955, 580.2678084972963
5122.461379579431, 586.086624159625
5127.809535769455, 597.7242554842821
5133.157691959478, 609.3618868089393
5141.179926244514, 632.6371494582536
5151.876238624561, 641.3653729517464
5162.572551004608, 696.644121743868
5173.268863384655, 705.3723452373608
5181.291097669689, 760.6510940294825
5189.313331954725, 772.2887253541396
5197.335566239761, 778.1075410164681
5205.3578005247955, 810.1110271592754
5216.054112904842, 815.9298428216039
5224.076347189878, 842.1145133020825
5232.098581474913, 856.661552457904
5242.79489385496, 868.2991837825612
5253.491206235008, 879.9368151072183
5264.187518615055, 888.6650386007112
5272.209752900089, 894.4838542630398
5280.231987185125, 909.0308934188613
5290.928299565172, 914.8497090811899
5301.624611945219, 949.7626030551613
5309.646846230254, 952.6720108863257
5314.995002420278, 964.3096422109828
5323.017236705313, 990.4943126914615
5333.71354908536, 1007.9507596784472
5344.409861465407, 1013.7695753407758
5355.106173845454, 1019.5883910031043
5365.802486225501, 1013.7695753407758
5376.4987986055485, 1002.1319440161186
5387.195110985595, 999.2225361849543
5397.891423365642, 999.2225361849543
5408.587735745689, 990.4943126914615
5419.284048125736, 978.8566813668043
5429.980360505783, 967.219050042147
5440.67667288583, 935.2155638993398
5451.372985265877, 926.487340405847
5459.395219550913, 900.3026699253684
5467.4174538359475, 888.6650386007112
5475.439688120983, 882.8462229383827
5480.787844311007, 859.5709602890684
5488.810078596041, 839.2051054709183
5496.832312881077, 836.2956976397539
5502.180469071101, 824.6580663150968
5510.202703356136, 775.198133185304
5518.224937641171, 772.2887253541396
5523.5730938311945, 754.8322783671538
5531.59532811623, 682.0970825880465
5542.291640496277, 676.2782669257178
5550.313874781312, 586.086624159625
5558.3361090663475, 565.7207693414748
5569.032421446394, 559.9019536791463
5579.728733826441, 524.9890597051749
5590.425046206488, 513.3514283805175
5601.121358586535, 431.88800910791747
5611.817670966582, 423.15978561442466
5622.513983346629, 391.15629947161733
5633.210295726677, 379.5186681469602
5641.232530011712, 359.1528133288102
5646.580686201735, 347.5151820041531
5654.602920486771, 332.9681428483316
5662.625154771806, 324.2399193548388
5670.647389056841, 298.05524887436013
5681.343701436888, 286.417617549703
5689.365935721924, 260.23294706922434
5697.388170006959, 248.5953157445672
5705.410404291994, 242.7765000822385
5713.432638577029, 228.229460926417
5724.128950957076, 222.41064526408854
5734.825263337123, 210.7730139394314
5745.52157571717, 199.13538261477424
5756.217888097218, 187.49775129011687
5766.914200477265, 155.49426514730976
5777.610512857312, 146.76604165381696
5788.306825237359, 135.1284103291598
5799.003137617406, 132.21900249799546
5809.699449997453, 132.21900249799546
5820.3957623774995, 132.21900249799546
5831.0920747575465, 132.21900249799546
5841.788387137593, 132.21900249799546
5852.48469951764, 132.21900249799546
5863.181011897687, 132.21900249799546
5873.877324277735, 132.21900249799546
5884.573636657782, 132.21900249799546
5895.269949037829, 132.21900249799546
5905.966261417876, 132.21900249799546
5916.662573797923, 132.21900249799546
5927.35888617797, 132.21900249799546
5938.055198558017, 132.21900249799546
5948.751510938064, 132.21900249799546
5959.447823318111, 132.21900249799546
5970.144135698158, 132.21900249799546
5980.840448078205, 132.21900249799546
5991.536760458252, 132.21900249799546
6002.233072838299, 129.30959466683112
6010.255307123334, 126.40018683566677
6018.27754140837, 111.8531476798455
6028.973853788417, 108.94373984868116
6039.670166168464, 108.94373984868116
6050.366478548511, 108.94373984868116
6061.062790928558, 108.94373984868116
6071.759103308605, 108.94373984868116
6082.455415688652, 108.94373984868116
6093.1517280686985, 108.94373984868116
6103.848040448745, 108.94373984868116
6114.544352828792, 108.94373984868116
6125.24066520884, 108.94373984868116
6135.936977588887, 108.94373984868116
6146.633289968934, 108.94373984868116
6157.329602348981, 108.94373984868116
6168.025914729028, 108.94373984868116
6178.722227109075, 108.94373984868116
6189.418539489122, 108.94373984868116
6200.114851869169, 108.94373984868116
6210.811164249216, 108.94373984868116
6221.507476629263, 108.94373984868116
6232.20378900931, 108.94373984868116
6242.900101389357, 108.94373984868116
6253.5964137694045, 108.94373984868116
6264.2927261494515, 108.94373984868116
6274.989038529498, 108.94373984868116
6285.685350909545, 108.94373984868116
6296.381663289592, 117.67196334217397
6307.077975669639, 129.30959466683112
6317.774288049686, 140.94722599148827
6328.470600429733, 149.6754494849813
6339.16691280978, 149.6754494849813
6349.863225189827, 152.58485731614542
6360.559537569874, 155.49426514730976
6371.255849949922, 170.04130430313126
6381.952162329969, 172.9507121342956
6392.648474710016, 172.9507121342956
6403.344787090063, 172.9507121342956
6414.04109947011, 172.9507121342956
6424.737411850157, 175.86011996545972
6432.759646135192, 184.58834345895275
6440.781880420227, 210.7730139394314
6451.478192800274, 219.5012374329242
6462.174505180321, 219.5012374329242
6472.870817560368, 219.5012374329242
6483.567129940415, 219.5012374329242
6494.263442320462, 219.5012374329242
6504.95975470051, 219.5012374329242
6515.656067080557, 219.5012374329242
6526.3523794606035, 219.5012374329242
6537.0486918406505, 219.5012374329242
6547.745004220697, 219.5012374329242
6558.441316600744, 219.5012374329242
6569.137628980791, 219.5012374329242
6579.833941360838, 219.5012374329242
6590.530253740885, 219.5012374329242
6601.226566120932, 219.5012374329242
6611.922878500979, 216.59182960175985
6622.619190881027, 204.9541982771027
6633.315503261074, 193.31656695244556
6644.011815641121, 187.49775129011687
6654.708128021168, 175.86011996545972
6665.404440401215, 164.22248864080257
6676.100752781262, 152.58485731614542
6686.797065161309, 146.76604165381696
6697.493377541356, 135.1284103291598
6708.1896899214025, 123.49077900450266
6718.8860023014495, 111.8531476798455
6729.582314681496, 100.21551635518813
6740.278627061543, 91.48729286169532
6750.974939441591, 85.66847719936686
6761.671251821638, 79.84966153703817
6772.367564201685, 79.84966153703817
6783.063876581732, 71.12143804354537
6793.760188961779, 59.48380671888822
6804.456501341826, 56.57439888772387
6815.152813721873, 56.57439888772387
6825.84912610192, 56.57439888772387
6836.545438481967, 56.57439888772387
6847.241750862014, 56.57439888772387
6857.938063242061, 56.57439888772387
6868.634375622109, 56.57439888772387
6879.3306880021555, 56.57439888772387
6890.0270003822025, 56.57439888772387
6900.723312762249, 56.57439888772387
6911.419625142296, 56.57439888772387
6922.115937522343, 56.57439888772387
6932.81224990239, 56.57439888772387
6943.508562282437, 56.57439888772387
6954.204874662484, 56.57439888772387
6964.901187042531, 56.57439888772387
6975.597499422578, 56.57439888772387
6986.293811802625, 62.393214550052335
6994.316046087661, 68.21203021238102
7002.338280372696, 79.84966153703817
7013.034592752743, 79.84966153703817
7023.73090513279, 82.75906936820252
7034.427217512837, 88.57788503053098
7045.123529892884, 100.21551635518813
7055.819842272931, 106.03433201751682
7066.516154652978, 108.94373984868116
7077.212467033025, 108.94373984868116
7087.908779413072, 117.67196334217397
7098.605091793119, 129.30959466683112
7109.301404173166, 132.21900249799546
7119.997716553214, 132.21900249799546
7130.694028933261, 132.21900249799546
7141.3903413133075, 132.21900249799546
7152.0866536933545, 132.21900249799546
7162.782966073401, 132.21900249799546
7173.479278453448, 132.21900249799546
7181.501512738484, 138.03781816032392
7189.523747023519, 149.6754494849813
7200.220059403566, 149.6754494849813
7210.916371783613, 149.6754494849813
7221.61268416366, 158.4036729784741
7232.308996543707, 170.04130430313126
7243.0053089237545, 172.9507121342956
7253.701621303801, 172.9507121342956
7264.397933683848, 172.9507121342956
7275.094246063895, 172.9507121342956
7285.790558443942, 172.9507121342956
7296.486870823989, 172.9507121342956
7307.183183204036, 172.9507121342956
7317.879495584083, 172.9507121342956
7328.57580796413, 172.9507121342956
7339.272120344177, 172.9507121342956
7349.968432724224, 172.9507121342956
7360.664745104271, 172.9507121342956
7371.361057484319, 172.9507121342956
7382.057369864366, 172.9507121342956
7392.753682244413, 172.9507121342956
7403.44999462446, 175.86011996545972
7414.1463070045065, 187.49775129011687
7424.8426193845535, 199.13538261477424
7435.5389317646, 210.7730139394314
7446.235244144647, 216.59182960175985
7456.931556524694, 219.5012374329242
7467.627868904741, 219.5012374329242
7478.324181284788, 219.5012374329242
7489.020493664835, 219.5012374329242
7499.716806044883, 219.5012374329242
7510.41311842493, 219.5012374329242
7521.109430804977, 219.5012374329242
7531.805743185024, 222.41064526408854
7542.502055565071, 216.59182960175985
7553.198367945118, 207.86360610826705
7563.894680325165, 199.13538261477424
7574.590992705212, 196.2259747836099
7585.287305085259, 196.2259747836099
7595.9836174653055, 187.49775129011687
7606.6799298453525, 175.86011996545972
7617.3762422254, 172.9507121342956
7628.072554605447, 172.9507121342956
7638.768866985494, 178.76952779662406
7649.465179365541, 190.4071591212812
7660.161491745588, 196.2259747836099
7670.857804125635, 196.2259747836099
7681.554116505682, 196.2259747836099
7692.250428885729, 196.2259747836099
7702.946741265776, 196.2259747836099
7713.643053645823, 196.2259747836099
7724.33936602587, 196.2259747836099
7735.035678405917, 196.2259747836099
7745.731990785965, 196.2259747836099
7756.428303166012, 196.2259747836099
7767.1246155460585, 196.2259747836099
7777.8209279261055, 202.04479044593836
7788.517240306152, 210.7730139394314
7799.213552686199, 219.5012374329242
7809.909865066246, 219.5012374329242
7820.606177446293, 222.41064526408854
7831.30248982634, 234.0482765887457
7841.998802206387, 242.7765000822385
7852.695114586434, 242.7765000822385
7863.391426966481, 242.7765000822385
7874.087739346529, 242.7765000822385
7884.784051726576, 242.7765000822385
7895.480364106623, 242.7765000822385
7906.17667648667, 242.7765000822385
7916.872988866717, 239.86709225107415
7924.895223151751, 207.86360610826705
7932.917457436787, 199.13538261477424
7943.613769816834, 204.9541982771027
7954.310082196881, 213.6824217705955
7965.006394576928, 213.6824217705955
7975.702706956975, 204.9541982771027
7986.399019337022, 196.2259747836099
7997.09533171707, 196.2259747836099
8007.791644097117, 196.2259747836099
8015.813878382151, 190.4071591212812
8023.836112667187, 175.86011996545972
8034.532425047233, 170.04130430313126
8045.22873742728, 158.4036729784741
8055.925049807329, 155.49426514730976
8066.621362187376, 149.6754494849813
8077.317674567423, 149.6754494849813
8088.01398694747, 140.94722599148827
8098.710299327517, 132.21900249799546
8109.406611707564, 132.21900249799546
8120.1029240876105, 132.21900249799546
8130.7992364676575, 132.21900249799546
8141.495548847704, 132.21900249799546
8152.191861227751, 132.21900249799546
8162.888173607798, 132.21900249799546
8173.584485987845, 132.21900249799546
8184.280798367892, 140.94722599148827
8194.97711074794, 149.6754494849813
8205.673423127986, 149.6754494849813
8216.369735508033, 149.6754494849813
8227.06604788808, 149.6754494849813
8237.762360268127, 152.58485731614542
8245.784594553163, 155.49426514730976
8253.806828838198, 167.1318964719669
8264.503141218245, 175.86011996545972
8275.199453598292, 187.49775129011687
8285.89576597834, 196.2259747836099
8296.592078358386, 204.9541982771027
8307.288390738433, 216.59182960175985
8315.310625023469, 225.32005309525266
8320.658781213491, 236.95768441991004
8328.681015498527, 263.14235490038845
8339.377327878574, 274.77998622504583
8350.07364025862, 306.78347236785294
8360.769952638668, 315.51169586134574
8368.792186923703, 335.8775506794959
8376.814421208739, 356.2434054976459
8387.510733588786, 367.88103682230303
8398.207045968833, 402.7939307962745
8408.90335834888, 408.61274645860317
8419.599670728927, 443.5256404325746
8430.295983108974, 455.16327175723177
8438.31821739401, 504.6232048870247
8446.340451679045, 519.1702440428462
8457.036764059092, 524.9890597051749
8467.733076439139, 559.9019536791463
8478.429388819186, 568.6301771726392
8486.451623104222, 591.9054398219535
8494.473857389255, 606.452478977775
8502.496091674291, 615.1807024712678
8507.844247864316, 626.8183337959249
8515.86648214935, 676.2782669257178
8523.888716434385, 679.1876747568822
8529.23687262441, 690.8253060815393
8537.259106909443, 717.009976562018
8545.281341194479, 725.7382000555108
8550.629497384503, 737.3758313801682
8558.651731669539, 763.5605018606466
8569.348044049586, 772.2887253541396
8580.044356429633, 772.2887253541396
8590.74066880968, 772.2887253541396
8598.762903094714, 778.1075410164681
8606.78513737975, 789.7451723411252
8617.481449759796, 798.4733958346183
8628.177762139843, 810.1110271592754
8638.87407451989, 818.8392506527682
8649.570386899937, 833.3862898085897
8660.266699279984, 836.2956976397539
8670.963011660031, 836.2956976397539
8681.65932404008, 836.2956976397539
8692.355636420127, 836.2956976397539
8703.051948800174, 836.2956976397539
8713.74826118022, 836.2956976397539
8724.444573560268, 836.2956976397539
8735.140885940315, 836.2956976397539
8745.837198320361, 836.2956976397539
8756.533510700408, 836.2956976397539
8767.229823080455, 836.2956976397539
8777.926135460502, 842.1145133020825
8788.62244784055, 850.8427367955754
8799.318760220596, 862.4803681202326
8810.015072600643, 865.3897759513969
8820.71138498069, 859.5709602890684
8831.407697360737, 850.8427367955754
8842.104009740784, 839.2051054709183
8852.800322120831, 827.5674741462611
8863.496634500878, 818.8392506527682
8874.192946880925, 824.6580663150968
8884.889259260972, 830.4768819774254
8895.585571641019, 836.2956976397539
8903.607805926054, 830.4768819774254
8911.63004021109, 815.9298428216039
8919.652274496126, 813.0204349904398
8927.674508781161, 781.0169488476324
8938.370821161208, 769.3793175229753
8949.067133541255, 757.7416861983181
8959.763445921302, 746.104054873661
8970.45975830135, 737.3758313801682
8981.156070681396, 728.6476078866751
8991.852383061443, 717.009976562018
9002.54869544149, 705.3723452373608
9013.245007821537, 702.4629374061965
9023.941320201584, 702.4629374061965
9034.63763258163, 696.644121743868
9045.333944961678, 685.0064904192109
9056.030257341725, 676.2782669257178
9066.726569721772, 664.6406356010607
9077.422882101819, 655.9124121075679
9088.119194481866, 647.1841886140751
9098.815506861913, 635.5465572894179
9109.51181924196, 623.9089259647608
9120.208131622006, 612.2712946401036
9130.904444002053, 600.6336633154463
9141.6007563821, 588.9960319907891
9152.297068762147, 586.086624159625
9162.993381142194, 586.086624159625
9173.689693522243, 580.2678084972963
9184.38600590229, 571.5395850038035
9195.082318282337, 562.8113615103105
9203.10455256737, 556.992545847982
9211.126786852406, 524.9890597051749
9221.823099232453, 522.0796518740106
9232.5194116125, 522.0796518740106
9243.215723992547, 522.0796518740106
9253.912036372594, 522.0796518740106
9264.608348752641, 516.2608362116819
9275.304661132688, 507.53261271818906
9286.000973512735, 498.80438922469625
9296.697285892784, 498.80438922469625
9307.39359827283, 495.8949813935319
9318.089910652878, 490.0761657312032
9328.786223032925, 478.43853440654607
9339.482535412972, 466.8009030818889
9350.178847793019, 455.16327175723177
9360.875160173066, 443.5256404325746
9371.571472553112, 408.61274645860317
9382.26778493316, 402.7939307962745
9392.964097313206, 391.15629947161733
9403.660409693253, 382.4280759781245
9411.682643978289, 376.60926031579584
9419.704878263323, 364.9716289911387
9430.401190643372, 362.06222115997457
9441.097503023419, 373.6998524846317
9451.793815403465, 376.60926031579584
9462.490127783512, 367.88103682230303
9473.18644016356, 362.06222115997457
9483.882752543606, 359.1528133288102
9494.579064923653, 359.1528133288102
9505.2753773037, 359.1528133288102
9515.971689683747, 359.1528133288102
9526.668002063794, 350.4245898353172
9537.364314443841, 338.78695851066004
9548.060626823888, 335.8775506794959
9558.756939203935, 335.8775506794959
9569.453251583982, 330.05873501716724
9580.149563964029, 321.33051152367443
9590.845876344076, 309.6928801990173
9601.542188724123, 298.05524887436013
9612.23850110417, 289.3270253808671
9622.934813484217, 280.5988018873743
9633.631125864264, 268.96117056271714
9641.6533601493, 260.23294706922434
9647.001516339324, 236.95768441991004
9655.023750624357, 225.32005309525266
9665.720063004404, 222.41064526408854
9676.416375384453, 219.5012374329242
9687.1126877645, 213.6824217705955
9697.809000144547, 204.9541982771027
9708.505312524594, 193.31656695244556
9719.201624904641, 181.6789356277884
9729.897937284688, 172.9507121342956
9740.594249664735, 172.9507121342956
9751.290562044782, 172.9507121342956
9761.986874424829, 172.9507121342956
9772.683186804876, 172.9507121342956
9783.379499184923, 172.9507121342956
9794.07581156497, 172.9507121342956
9804.772123945017, 170.04130430313126
9815.468436325064, 158.4036729784741
9826.16474870511, 149.6754494849813
9836.861061085157, 135.1284103291598
9847.557373465204, 132.21900249799546
9858.253685845251, 132.21900249799546
9868.949998225298, 126.40018683566677
9879.646310605345, 117.67196334217397
9890.342622985392, 108.94373984868116
9901.03893536544, 108.94373984868116
9911.735247745486, 108.94373984868116
9922.431560125535, 108.94373984868116
9933.127872505582, 108.94373984868116
9943.824184885629, 100.21551635518813
9954.520497265676, 88.57788503053098
9965.216809645723, 85.66847719936686
9975.91312202577, 79.84966153703817
9986.609434405817, 79.84966153703817
9997.305746785863, 79.84966153703817
10008.00205916591, 85.66847719936686
10018.698371545957, 82.75906936820252
10029.394683926004, 79.84966153703817
10037.41691821104, 79.84966153703817
10045.439152496076, 65.30262238121668
10056.135464876123, 59.48380671888822
10066.83177725617, 56.57439888772387
10077.528089636216, 56.57439888772387
10088.224402016263, 56.57439888772387
10098.92071439631, 56.57439888772387
10109.617026776357, 56.57439888772387
10120.313339156404, 56.57439888772387
10131.009651536451, 56.57439888772387
10141.705963916498, 56.57439888772387
10152.402276296545, 56.57439888772387
10163.098588676592, 56.57439888772387
10173.794901056639, 62.393214550052335
10184.491213436686, 71.12143804354537
10195.187525816733, 79.84966153703817
10205.88383819678, 85.66847719936686
10216.580150576827, 82.75906936820252
10227.276462956874, 79.84966153703817
10237.97277533692, 79.84966153703817
10248.669087716968, 88.57788503053098
10259.365400097015, 103.12492418635247
10270.061712477062, 106.03433201751682
10280.758024857108, 108.94373984868116
10291.454337237157, 108.94373984868116
10302.150649617204, 108.94373984868116
10312.846961997251, 108.94373984868116
10323.543274377298, 108.94373984868116
10334.239586757345, 108.94373984868116
10344.935899137392, 108.94373984868116
10355.632211517439, 108.94373984868116
10366.328523897486, 108.94373984868116
10377.024836277533, 108.94373984868116
10387.72114865758, 108.94373984868116
10398.417461037627, 108.94373984868116
10409.113773417674, 108.94373984868116
10419.81008579772, 108.94373984868116
10430.506398177768, 108.94373984868116
10441.202710557814, 108.94373984868116
10451.899022937861, 108.94373984868116
10462.595335317908, 108.94373984868116
10473.291647697955, 108.94373984868116
10483.987960078002, 108.94373984868116
10494.68427245805, 108.94373984868116
10505.380584838096, 108.94373984868116
10516.076897218143, 108.94373984868116
10526.77320959819, 108.94373984868116
10537.469521978237, 108.94373984868116
10548.165834358286, 111.8531476798455
10558.862146738333, 123.49077900450266
10569.55845911838, 126.40018683566677
10580.254771498427, 132.21900249799546
10590.951083878474, 132.21900249799546
10601.64739625852, 132.21900249799546
10612.343708638567, 132.21900249799546
10623.040021018614, 135.1284103291598
10633.736333398661, 149.6754494849813
10644.432645778708, 158.4036729784741
10655.128958158755, 170.04130430313126
10665.825270538802, 181.6789356277884
10676.52158291885, 190.4071591212812
10687.217895298896, 199.13538261477424
10697.914207678943, 210.7730139394314
10708.61052005899, 222.41064526408854
10719.306832439037, 234.0482765887457
10730.003144819084, 245.68590791340284
10738.02537910412, 248.5953157445672
10746.047613389155, 280.5988018873743
10756.743925769202, 292.23643321203144
10767.44023814925, 303.8740645366886
10778.136550529296, 312.6022880301814
10786.158784814332, 324.2399193548388
10791.506941004354, 341.6963663418244
10799.52917528939, 356.2434054976459
10810.225487669437, 367.88103682230303
10820.921800049484, 402.7939307962745
10831.61811242953, 408.61274645860317
10842.314424809578, 466.8009030818889
10850.336659094613, 475.5291265753817
10855.684815284638, 487.1667579000391
10863.707049569672, 559.9019536791463
10874.403361949719, 565.7207693414748
10882.425596234754, 591.9054398219535
10890.44783051979, 606.452478977775
10901.144142899837, 618.0901103024321
10911.840455279884, 676.2782669257178
10922.53676765993, 682.0970825880465
10930.559001944966, 708.2817530685252
10938.581236230002, 722.8287922243467
10949.277548610049, 734.4664235490038
10959.973860990096, 746.104054873661
10970.670173370143, 757.7416861983181
10981.36648575019, 766.4699096918109
10992.062798130237, 772.2887253541396
11002.759110510284, 772.2887253541396
11013.45542289033, 775.198133185304
11021.477657175366, 778.1075410164681
11029.4998914604, 792.6545801722896
11040.196203840449, 798.4733958346183
11050.892516220496, 813.0204349904398
11061.588828600543, 813.0204349904398
11072.28514098059, 818.8392506527682
11082.981453360637, 813.0204349904398
11093.677765740684, 815.9298428216039
11104.37407812073, 818.8392506527682
11115.070390500778, 827.5674741462611
11125.766702880825, 836.2956976397539
11136.463015260872, 836.2956976397539
11147.159327640918, 836.2956976397539
11157.855640020965, 836.2956976397539
11168.551952401012, 836.2956976397539
11179.24826478106, 836.2956976397539
11189.944577161106, 836.2956976397539
11200.640889541153, 836.2956976397539
11211.3372019212, 836.2956976397539
11222.033514301247, 842.1145133020825
11232.729826681294, 850.8427367955754
11243.426139061341, 859.5709602890684
11254.122451441388, 850.8427367955754
11264.818763821435, 839.2051054709183
11275.515076201482, 836.2956976397539
11286.211388581529, 836.2956976397539
11296.907700961578, 836.2956976397539
11307.604013341625, 836.2956976397539
11318.300325721671, 833.3862898085897
11328.996638101718, 821.7486584839326
11339.692950481765, 813.0204349904398
11350.389262861812, 781.0169488476324
11361.08557524186, 769.3793175229753
11369.107809526895, 743.1946470424966
11377.130043811929, 728.6476078866751
11385.152278096964, 719.9193843931823
11390.500434286989, 708.2817530685252
11398.522668572023, 682.0970825880465
11409.21898095207, 676.2782669257178
11417.241215237105, 626.8183337959249
11425.263449522141, 612.2712946401036
11435.959761902188, 600.6336633154463
11446.656074282235, 565.7207693414748
11457.352386662282, 559.9019536791463
11468.048699042329, 524.9890597051749
11478.745011422376, 513.3514283805175
11489.441323802423, 501.71379705586037
11500.13763618247, 495.8949813935319
11510.833948562517, 484.25735006887476
11521.530260942563, 472.6197187442176
11532.22657332261, 460.98208741956046
11542.92288570266, 449.3444560949033
11550.945119987693, 446.43504826373896
11558.967354272729, 431.88800910791747
11569.663666652776, 426.0691934455888
11580.359979032823, 408.61274645860317
11591.05629141287, 408.61274645860317
11601.752603792916, 411.5221542897675
11612.448916172963, 420.2503777832603
11623.14522855301, 428.9786012767531
11633.841540933057, 428.9786012767531
11644.537853313104, 423.15978561442466
11655.234165693151, 423.15978561442466
11665.9304780732, 423.15978561442466
11676.626790453247, 423.15978561442466
11687.323102833294, 428.9786012767531
11698.01941521334, 437.70682477024593
11708.715727593388, 449.3444560949033
11719.412039973435, 460.98208741956046
11730.108352353482, 469.71031091305326
11740.804664733529, 475.5291265753817
11751.500977113576, 469.71031091305326
11759.523211398611, 475.5291265753817
11767.545445683645, 490.0761657312032
11778.241758063692, 490.0761657312032
11788.93807044374, 484.25735006887476
11799.634382823788, 475.5291265753817
11810.330695203835, 469.71031091305326
11821.027007583882, 469.71031091305326
11831.723319963929, 472.6197187442176
11842.419632343976, 469.71031091305326
11853.115944724022, 466.8009030818889
11863.81225710407, 455.16327175723177
11874.508569484116, 449.3444560949033
11885.204881864163, 446.43504826373896
11895.90119424421, 443.5256404325746
11906.597506624257, 437.70682477024593
11917.293819004304, 428.9786012767531
11927.990131384351, 423.15978561442466
11938.686443764398, 423.15978561442466
11949.382756144445, 423.15978561442466
11960.079068524492, 423.15978561442466
11970.775380904539, 423.15978561442466
11981.471693284586, 423.15978561442466
11992.168005664633, 423.15978561442466
12002.86431804468, 426.0691934455888
12013.560630424727, 428.9786012767531
12024.256942804774, 437.70682477024593
12034.953255184822, 446.43504826373896
12045.64956756487, 446.43504826373896
12056.345879944916, 449.3444560949033
12067.042192324963, 460.98208741956046
12077.73850470501, 469.71031091305326
12088.434817085057, 469.71031091305326
12099.131129465104, 472.6197187442176
12109.827441845151, 469.71031091305326
12120.523754225198, 472.6197187442176
12131.220066605245, 475.5291265753817
12141.916378985292, 484.25735006887476
12152.612691365339, 495.8949813935319
12160.634925650374, 487.1667579000391
12168.65715993541, 475.5291265753817
12179.353472315457, 475.5291265753817
12190.049784695504, 472.6197187442176
12200.746097075551, 466.8009030818889
12211.442409455598, 455.16327175723177
12222.138721835645, 446.43504826373896
12232.835034215692, 437.70682477024593
12243.531346595739, 426.0691934455888
12254.227658975786, 414.43156212093163
12264.923971355833, 405.7033386274388
12275.62028373588, 405.7033386274388
12286.316596115927, 405.7033386274388
12297.012908495974, 405.7033386274388
12307.70922087602, 405.7033386274388
12318.405533256067, 408.61274645860317
12329.101845636114, 420.2503777832603
12339.798158016161, 426.0691934455888
12350.494470396208, 428.9786012767531
12361.190782776255, 426.0691934455888
12371.887095156302, 423.15978561442466
12382.58340753635, 426.0691934455888
12393.279719916396, 437.70682477024593
12403.976032296443, 446.43504826373896
12414.672344676492, 455.16327175723177
12425.368657056539, 466.8009030818889
12436.064969436586, 472.6197187442176
12446.761281816633, 475.5291265753817
12457.45759419668, 478.43853440654607
12468.153906576727, 490.0761657312032
12478.850218956773, 498.80438922469625
12489.54653133682, 498.80438922469625
12500.242843716867, 492.98557356236756
12510.939156096914, 484.25735006887476
12521.635468476961, 475.5291265753817
12532.331780857008, 469.71031091305326
12543.028093237055, 469.71031091305326
12553.724405617102, 466.8009030818889
12564.420717997149, 452.2538639260674
12575.117030377196, 443.5256404325746
12585.813342757243, 431.88800910791747
12596.50965513729, 420.2503777832603
12607.205967517337, 391.15629947161733
12617.902279897384, 379.5186681469602
12628.59859227743, 367.88103682230303
12639.294904657478, 359.1528133288102
12647.317138942513, 353.33399766648154
12655.339373227549, 338.78695851066004
12666.035685607596, 332.9681428483316
12674.057919892632, 324.2399193548388
12682.080154177667, 312.6022880301814
12692.776466557714, 303.8740645366886
12703.472778937761, 292.23643321203144
12714.169091317808, 283.50820971853864
12724.865403697855, 274.77998622504583
12735.561716077902, 263.14235490038845
12746.258028457949, 251.5047235757313
12756.954340837996, 242.7765000822385
12764.976575123032, 225.32005309525266
12772.998809408065, 199.13538261477424
12783.695121788114, 196.2259747836099
12794.391434168161, 196.2259747836099
12805.087746548208, 196.2259747836099
12815.784058928255, 196.2259747836099
12826.480371308302, 196.2259747836099
12837.176683688349, 196.2259747836099
12847.872996068396, 196.2259747836099
12858.569308448443, 196.2259747836099
12869.26562082849, 196.2259747836099
12879.961933208537, 196.2259747836099
12890.658245588584, 196.2259747836099
12901.35455796863, 196.2259747836099
12912.050870348678, 196.2259747836099
12922.747182728725, 202.04479044593836
12933.443495108771, 210.7730139394314
12944.139807488818, 219.5012374329242
12954.836119868865, 219.5012374329242
12965.532432248912, 222.41064526408854
12973.554666533948, 231.13886875758135
12981.576900818984, 263.14235490038845
12992.27321319903, 266.0517627315528
13002.969525579078, 266.0517627315528
13013.665837959124, 271.8705783938815
13021.68807224416, 271.8705783938815
13029.710306529196, 283.50820971853864
13040.406618909243, 289.3270253808671
13051.10293128929, 289.3270253808671
13061.799243669337, 292.23643321203144
13072.495556049384, 303.8740645366886
13083.19186842943, 312.6022880301814
13093.888180809477, 327.1493271860029
13104.584493189524, 332.9681428483316
13112.60672747456, 347.5151820041531
13117.954883664583, 359.1528133288102
13125.977117949618, 379.5186681469602
13136.673430329665, 388.246891640453
13147.369742709712, 399.88452296511036
13158.06605508976, 405.7033386274388
13168.762367469806, 405.7033386274388
13179.458679849853, 408.61274645860317
13190.1549922299, 420.2503777832603
13200.851304609947, 420.2503777832603
13211.547616989994, 414.43156212093163
13222.24392937004, 405.7033386274388
13232.940241750088, 405.7033386274388
13243.636554130135, 405.7033386274388
13254.332866510182, 405.7033386274388
13265.029178890229, 405.7033386274388
13275.725491270276, 408.61274645860317
13286.421803650324, 423.15978561442466
13297.118116030371, 423.15978561442466
13307.814428410418, 428.9786012767531
13318.510740790465, 428.9786012767531
13329.207053170512, 426.0691934455888
13339.90336555056, 423.15978561442466
13350.599677930606, 414.43156212093163
13361.295990310653, 405.7033386274388
13371.9923026907, 405.7033386274388
13382.688615070747, 405.7033386274388
13393.384927450794, 414.43156212093163
13404.08123983084, 423.15978561442466
13414.777552210888, 431.88800910791747
13425.473864590935, 443.5256404325746
13436.170176970982, 449.3444560949033
13446.866489351029, 446.43504826373896
13457.562801731076, 446.43504826373896
13468.259114111122, 431.88800910791747
13478.95542649117, 428.9786012767531
13489.651738871216, 423.15978561442466
13500.348051251263, 423.15978561442466
13511.04436363131, 423.15978561442466
13521.740676011357, 428.9786012767531
13532.436988391406, 431.88800910791747
13543.133300771453, 443.5256404325746
13553.8296131515, 446.43504826373896
13564.525925531547, 446.43504826373896
13575.222237911594, 455.16327175723177
13585.91855029164, 466.8009030818889
13596.614862671688, 469.71031091305326
13607.311175051735, 472.6197187442176
13618.007487431782, 475.5291265753817
13628.703799811829, 484.25735006887476
13639.400112191875, 495.8949813935319
13650.096424571922, 504.6232048870247
13660.79273695197, 519.1702440428462
13671.489049332016, 522.0796518740106
13682.185361712063, 522.0796518740106
13692.88167409211, 522.0796518740106
13703.577986472157, 522.0796518740106
13714.274298852204, 524.9890597051749
13724.970611232251, 530.8078753675034
13735.666923612298, 539.5360988609962
13746.363235992345, 539.5360988609962
13757.059548372392, 539.5360988609962
13767.755860752439, 539.5360988609962
13778.452173132488, 542.4455066921605
13786.474407417521, 545.3549145233249
13794.496641702557, 577.358400666132
13805.192954082604, 588.9960319907891
13815.889266462651, 600.6336633154463
13826.585578842698, 612.2712946401036
13837.281891222745, 618.0901103024321
13847.978203602792, 632.6371494582536
13858.674515982839, 641.3653729517464
13869.370828362886, 653.0030042764035
13880.067140742933, 664.6406356010607
13890.76345312298, 696.644121743868
13901.459765503028, 705.3723452373608
13912.156077883075, 717.009976562018
13922.852390263122, 728.6476078866751
13930.874624548156, 743.1946470424966
13938.896858833192, 769.3793175229753
13949.593171213239, 775.198133185304
13960.289483593286, 810.1110271592754
13970.985795973333, 818.8392506527682
13979.008030258368, 847.9333289644111
13987.030264543404, 862.4803681202326
13997.726576923451, 874.1179994448897
14008.422889303498, 882.8462229383827
14019.119201683545, 891.5744464318755
14029.815514063592, 903.2120777565327
14040.511826443639, 911.9403012500255
14048.534060728674, 917.7591169123541
14056.55629501371, 973.0378657044756
14064.578529298744, 981.7660891979685
14069.926685488768, 993.4037205226257
14077.948919773804, 1019.5883910031043
14088.64523215385, 1031.2260223277615
14099.341544533898, 1042.8636536524186
14110.037856913945, 1048.6824693147473
14120.734169293992, 1083.5953632887188
14131.430481674039, 1092.3235867822116
14139.452715959074, 1103.9612181068687
14144.800872149097, 1121.4176650938546
14152.823106434133, 1138.8741120808404
14160.845340719168, 1144.6929277431689
14166.19349690919, 1162.1493747301547
14174.215731194226, 1182.5152295483047
14184.912043574273, 1194.1528608729618
14195.60835595432, 1202.8810843664546
14206.304668334367, 1202.8810843664546
14217.000980714414, 1208.6999000287833
14227.697293094461, 1208.6999000287833
14238.393605474508, 1202.8810843664546
14249.089917854555, 1202.8810843664546
14259.786230234602, 1194.1528608729618
14270.482542614649, 1185.424637379469
14278.504776899685, 1191.2434530417977
14286.52701118472, 1223.2469391846048
14297.223323564767, 1234.884570509262
14307.919635944814, 1246.522201833919
14315.94187022985, 1249.4316096650832
14323.964104514886, 1263.9786488209047
14334.660416894932, 1316.347989781862
14345.35672927498, 1325.0762132753548
14356.053041655026, 1357.0796994181621
14366.749354035073, 1368.7173307428193
14374.771588320109, 1389.0831855609695
14382.793822605143, 1412.3584482102838
14393.49013498519, 1421.0866717037766
14404.186447365239, 1432.7243030284337
14414.882759745286, 1435.633710859598
14425.579072125332, 1435.633710859598
14436.27538450538, 1441.4525265219265
14446.971696885426, 1450.1807500154196
14457.668009265473, 1458.9089735089124
14465.690243550509, 1464.727789171241
14471.038399740532, 1517.0971301321981
14479.060634025567, 1528.7347614568553
14487.082868310603, 1534.553577119184
14495.105102595637, 1549.1006162750055
14505.801414975684, 1552.0100241061696
14516.49772735573, 1552.0100241061696
14527.19403973578, 1549.1006162750055
14535.216274020813, 1522.9159457945268
14543.238508305849, 1508.3689066387053
14553.934820685896, 1496.7312753140482
14564.631133065943, 1485.093643989391
14575.32744544599, 1479.2748283270623
14586.023757826037, 1397.8114090544623
14596.720070206084, 1386.1737777298051
14607.41638258613, 1327.9856211065194
14618.112694966178, 1319.2573976130263
14628.809007346224, 1310.5291741195335
14639.505319726271, 1298.8915427948764
14647.527554011307, 1295.982134963712
14652.875710201331, 1272.7068723143977
14660.897944486367, 1229.0657548469335
14671.594256866414, 1223.2469391846048
14682.290569246461, 1208.6999000287833
14692.986881626508, 1199.9716765352905
14703.683194006555, 1165.0587825613188
14714.379506386602, 1159.2399668989904
14725.075818766649, 1147.6023355743332
14735.772131146696, 1135.9647042496758
14743.794365431731, 1121.4176650938546
14751.816599716765, 1095.232994613376
14762.512912096812, 1092.3235867822116
14773.209224476861, 1092.3235867822116
14783.905536856908, 1089.4141789510472
14794.601849236955, 1031.2260223277615
14805.298161617002, 1019.5883910031043
14815.994473997049, 1007.9507596784472
14826.690786377096, 1002.1319440161186
14834.713020662131, 987.5849048602971
14840.061176852154, 970.1284578733114
14848.08341113719, 955.5814187174899
14858.779723517237, 946.8531952239971
14869.476035897284, 932.3061560681756
14880.17234827733, 926.487340405847
14890.868660657377, 914.8497090811899
14901.564973037424, 911.9403012500255
14912.261285417471, 911.9403012500255
14922.957597797518, 906.121485587697
14930.979832082554, 859.5709602890684
14939.00206636759, 839.2051054709183
14949.698378747637, 833.3862898085897
14960.394691127683, 798.4733958346183
14971.09100350773, 792.6545801722896
14979.113237792766, 714.1005687308536
14987.1354720778, 702.4629374061965
14995.157706362836, 696.644121743868
15003.179940647871, 641.3653729517464
15013.876253027918, 635.5465572894179
15021.898487312954, 615.1807024712678
15029.92072159799, 568.6301771726392
15040.617033978036, 559.9019536791463
15051.313346358083, 484.25735006887476
15062.00965873813, 469.71031091305326
15070.031893023164, 458.0726795883961
15078.0541273082, 431.88800910791747
15088.750439688247, 420.2503777832603
15099.446752068294, 364.9716289911387
15107.46898635333, 359.1528133288102
15112.817142543354, 347.5151820041531
15118.165298733376, 324.2399193548388
15126.187533018412, 312.6022880301814
15136.883845398459, 303.8740645366886
15147.580157778506, 268.96117056271714
15158.276470158553, 263.14235490038845
15168.9727825386, 251.5047235757313
15179.669094918647, 242.7765000822385
15187.691329203682, 213.6824217705955
15195.713563488718, 199.13538261477424
15206.409875868765, 187.49775129011687
15217.106188248812, 175.86011996545972
15227.802500628859, 170.04130430313126
15238.498813008906, 158.4036729784741
15249.195125388953, 152.58485731614542
15259.891437769, 149.6754494849813
15270.587750149047, 149.6754494849813
15281.284062529094, 140.94722599148827
15291.98037490914, 132.21900249799546
15300.002609194176, 132.21900249799546
15308.024843479212, 146.76604165381696
15318.721155859259, 149.6754494849813
15329.417468239306, 149.6754494849813
15340.113780619353, 155.49426514730976
15348.136014904389, 155.49426514730976
15356.158249189422, 167.1318964719669
15366.85456156947, 172.9507121342956
15377.550873949516, 172.9507121342956
15388.247186329563, 175.86011996545972
15396.269420614599, 184.58834345895275
15404.291654899635, 216.59182960175985
15414.987967279681, 228.229460926417
15425.684279659728, 263.14235490038845
15436.380592039775, 268.96117056271714
15447.076904419822, 280.5988018873743
15457.77321679987, 289.3270253808671
15468.469529179916, 298.05524887436013
15479.165841559963, 309.6928801990173
15489.86215394001, 321.33051152367443
15500.558466320057, 332.9681428483316
15508.580700605093, 341.6963663418244
15513.928856795117, 359.1528133288102
15521.951091080153, 379.5186681469602
15532.6474034602, 391.15629947161733
15543.343715840247, 420.2503777832603
15554.040028220294, 428.9786012767531
15562.062262505327, 446.43504826373896
15570.084496790363, 466.8009030818889
15580.78080917041, 475.5291265753817
15591.477121550457, 472.6197187442176
15602.173433930504, 469.71031091305326
15612.86974631055, 469.71031091305326
15623.566058690598, 478.43853440654607
15634.262371070645, 490.0761657312032
15644.958683450694, 498.80438922469625
15655.65499583074, 507.53261271818906
15666.351308210787, 519.1702440428462
15677.047620590834, 522.0796518740106
15687.743932970881, 522.0796518740106
15698.440245350928, 522.0796518740106
15709.136557730975, 519.1702440428462
15717.158792016011, 516.2608362116819
15725.181026301045, 504.6232048870247
15735.877338681092, 495.8949813935319
15746.573651061139, 484.25735006887476
15757.269963441186, 472.6197187442176
15765.292197726221, 463.8914952507246
15770.640353916246, 452.2538639260674
15778.662588201281, 426.0691934455888
15789.358900581328, 420.2503777832603
15800.055212961375, 408.61274645860317
15810.751525341422, 396.975115133946
15821.44783772147, 385.33748380928887
15829.470072006503, 382.4280759781245
15834.818228196527, 370.7904446534674
15842.840462481563, 344.60577417298873
15853.53677486161, 332.9681428483316
15864.233087241657, 321.33051152367443
15874.929399621704, 309.6928801990173
15882.95163390674, 306.78347236785294
15890.973868191773, 292.23643321203144
15901.670180571822, 286.417617549703
15912.366492951869, 274.77998622504583
15923.062805331916, 263.14235490038845
15933.759117711963, 251.5047235757313
15944.45543009201, 245.68590791340284
15952.477664377044, 231.13886875758135
15957.825820567068, 213.6824217705955
15965.848054852104, 199.13538261477424
15976.54436723215, 196.2259747836099
15987.240679612198, 196.2259747836099
15997.936991992245, 190.4071591212812
16008.633304372292, 175.86011996545972
16019.329616752339, 170.04130430313126
16030.025929132385, 155.49426514730976
16040.722241512432, 155.49426514730976
16051.41855389248, 149.6754494849813
16062.114866272526, 149.6754494849813
16072.811178652573, 140.94722599148827
16083.50749103262, 132.21900249799546
16094.203803412667, 132.21900249799546
16104.900115792714, 132.21900249799546
16115.596428172761, 132.21900249799546
16126.292740552808, 132.21900249799546
16136.989052932855, 135.1284103291598
16147.685365312904, 146.76604165381696
16158.38167769295, 155.49426514730976
16169.077990072998, 164.22248864080257
16179.774302453045, 175.86011996545972
16190.470614833092, 187.49775129011687
16201.166927213138, 196.2259747836099
16211.863239593185, 210.7730139394314
16222.559551973232, 219.5012374329242
16230.581786258268, 231.13886875758135
16238.604020543304, 280.5988018873743
16249.300332923349, 289.3270253808671
16257.322567208384, 295.1458410431958
16262.670723398407, 1144.6929277431689
16270.692957683443, 1162.1493747301547
16278.715191968478, 1167.9681903924832
16284.063348158501, 1255.250425327412
16292.085582443537, 1275.616280145562
16300.107816728572, 1278.5256879767262
16305.455972918595, 1290.1633193013836
16313.47820720363, 1479.2748283270623
16321.500441488666, 1482.1842361582267
16326.848597678689, 1493.8218674828838
16334.870831963724, 1636.3828512099342
16345.567144343773, 1648.0204825345913
16356.263456723818, 1723.665086144863
16366.959769103867, 1735.30271746952
16377.656081483912, 1799.3096897551345
16388.352393863963, 1802.2190975862986
16399.04870624401, 1802.2190975862986
16409.745018624057, 1802.2190975862986
16420.441331004105, 1802.2190975862986
16431.13764338415, 1802.2190975862986
16441.8339557642, 1802.2190975862986
16452.530268144244, 1735.30271746952
16463.226580524293, 1726.574493976027
16473.92289290434, 1554.919431937334
16484.619205284387, 1549.1006162750055
16495.315517664432, 1304.7103584572048
16506.01183004448, 1298.8915427948764
16516.708142424526, 1147.6023355743332
16527.404454804575, 1135.9647042496758
16535.42668908961, 1121.4176650938546
16540.774845279633, 987.5849048602971
16548.79707956467, 973.0378657044756
16556.819313849704, 964.3096422109828
16564.84154813474, 781.0169488476324
16575.537860514785, 772.2887253541396
16586.234172894834, 769.3793175229753
