(di-)nucleotide	count sample	percent sample	count genomic	percent genomic	coverage
A	13882361	26.78	5124	30.93	2709.282
C	9961415	19.21	5181	31.27	1922.682
G	13087785	25.24	2169	13.09	6034.018
T	14915101	28.77	4094	24.71	3643.161
AA	3597119	7.04	1604	9.68	2242.593
AC	2382400	4.67	1495	9.02	1593.579
AG	3855522	7.55	795	4.80	4849.713
AT	3859232	7.56	1230	7.42	3137.587
CA	2667072	5.22	1534	9.26	1738.639
CC	2744078	5.37	1771	10.69	1549.451
CG	1309802	2.56	435	2.63	3011.039
CT	3098721	6.07	1440	8.69	2151.890
GA	3174036	6.22	613	3.70	5177.873
GC	2193745	4.30	711	4.29	3085.436
GG	4038583	7.91	425	2.57	9502.548
GT	3484079	6.82	419	2.53	8315.224
TA	4224629	8.27	1373	8.29	3076.933
TC	2484814	4.87	1204	7.27	2063.799
TG	3689487	7.22	513	3.10	7191.982
TT	4264697	8.35	1004	6.06	4247.706
