(di-)nucleotide	count sample	percent sample	count genomic	percent genomic	coverage
A	4151525	26.83	5124	30.93	810.212
C	3038562	19.64	5181	31.27	586.482
G	3843221	24.84	2169	13.09	1771.886
T	4440614	28.70	4094	24.71	1084.664
AA	1078549	7.08	1604	9.68	672.412
AC	727740	4.77	1495	9.02	486.783
AG	1138046	7.47	795	4.80	1431.504
AT	1150644	7.55	1230	7.42	935.483
CA	814042	5.34	1534	9.26	530.666
CC	848822	5.57	1771	10.69	479.290
CG	390313	2.56	435	2.63	897.271
CT	943143	6.19	1440	8.69	654.960
GA	935147	6.14	613	3.70	1525.525
GC	656726	4.31	711	4.29	923.665
GG	1178948	7.74	425	2.57	2773.995
GT	1014011	6.65	419	2.53	2420.074
TA	1257803	8.25	1373	8.29	916.098
TC	757309	4.97	1204	7.27	628.994
TG	1078503	7.08	513	3.10	2102.345
TT	1271916	8.34	1004	6.06	1266.849
