(di-)nucleotide	count sample	percent sample	count genomic	percent genomic	coverage
A	5115823	25.22	5124	30.93	998.404
C	3140477	15.48	5181	31.27	606.153
G	5932512	29.25	2169	13.09	2735.137
T	6096107	30.05	4094	24.71	1489.034
AA	1223067	6.12	1604	9.68	762.511
AC	644606	3.23	1495	9.02	431.175
AG	1670523	8.36	795	4.80	2101.287
AT	1509846	7.56	1230	7.42	1227.517
CA	783999	3.93	1534	9.26	511.081
CC	739852	3.70	1771	10.69	417.759
CG	531790	2.66	435	2.63	1222.506
CT	1038541	5.20	1440	8.69	721.209
GA	1399834	7.01	613	3.70	2283.579
GC	882576	4.42	711	4.29	1241.316
GG	1908964	9.56	425	2.57	4491.680
GT	1646753	8.25	419	2.53	3930.198
TA	1623886	8.13	1373	8.29	1182.728
TC	821621	4.11	1204	7.27	682.409
TG	1732747	8.68	513	3.10	3377.674
TT	1813148	9.08	1004	6.06	1805.924
