(di-)nucleotide	count sample	percent sample	count genomic	percent genomic	coverage
A	10652934	25.99	5124	30.93	2079.027
C	6833664	16.67	5181	31.27	1318.986
G	11402990	27.82	2169	13.09	5257.257
T	12095199	29.51	4094	24.71	2954.372
AA	2663857	6.60	1604	9.68	1660.759
AC	1521699	3.77	1495	9.02	1017.859
AG	3277329	8.12	795	4.80	4122.426
AT	3048770	7.55	1230	7.42	2478.675
CA	1763233	4.37	1534	9.26	1149.435
CC	1735115	4.30	1771	10.69	979.737
CG	1034949	2.56	435	2.63	2379.193
CT	2201297	5.45	1440	8.69	1528.678
GA	2721252	6.74	613	3.70	4439.237
GC	1724435	4.27	711	4.29	2425.366
GG	3661731	9.07	425	2.57	8615.838
GT	3124746	7.74	419	2.53	7457.628
TA	3340776	8.28	1373	8.29	2433.194
TC	1744563	4.32	1204	7.27	1448.973
TG	3258646	8.07	513	3.10	6352.136
TT	3547614	8.79	1004	6.06	3533.480
