(di-)nucleotide	count sample	percent sample	count genomic	percent genomic	coverage
A	10563825	27.48	5124	30.93	2061.636
C	8227380	21.41	5181	31.27	1587.991
G	8852477	23.03	2169	13.09	4081.363
T	10792418	28.08	4094	24.71	2636.155
AA	2828721	7.47	1604	9.68	1763.542
AC	2062299	5.45	1495	9.02	1379.464
AG	2675602	7.07	795	4.80	3365.537
AT	2851696	7.53	1230	7.42	2318.452
CA	2254879	5.96	1534	9.26	1469.934
CC	2395651	6.33	1771	10.69	1352.711
CG	964766	2.55	435	2.63	2217.853
CT	2496398	6.59	1440	8.69	1733.610
GA	2178531	5.75	613	3.70	3553.884
GC	1626363	4.30	711	4.29	2287.430
GG	2637696	6.97	425	2.57	6206.344
GT	2277785	6.02	419	2.53	5436.241
TA	3135482	8.28	1373	8.29	2283.672
TC	2014264	5.32	1204	7.27	1672.977
TG	2443886	6.45	513	3.10	4763.910
TT	3017188	7.97	1004	6.06	3005.167
