(di-)nucleotide	count sample	percent sample	count genomic	percent genomic	coverage
A	3601282	24.79	5124	30.93	702.826
C	1879159	12.93	5181	31.27	362.702
G	4579038	31.52	2169	13.09	2111.129
T	4468420	30.76	4094	24.71	1091.456
AA	836183	5.84	1604	9.68	521.311
AC	347929	2.43	1495	9.02	232.728
AG	1278568	8.94	795	4.80	1608.262
AT	1092257	7.63	1230	7.42	888.014
CA	449932	3.14	1534	9.26	293.306
CC	378741	2.65	1771	10.69	213.857
CG	368367	2.57	435	2.63	846.821
CT	654684	4.58	1440	8.69	454.642
GA	1078897	7.54	613	3.70	1760.028
GC	613056	4.29	711	4.29	862.245
GG	1514625	10.59	425	2.57	3563.824
GT	1300840	9.09	419	2.53	3104.630
TA	1179079	8.24	1373	8.29	858.761
TC	509459	3.56	1204	7.27	423.139
TG	1347906	9.42	513	3.10	2627.497
TT	1356452	9.48	1004	6.06	1351.048
