(di-)nucleotide	count sample	percent sample	count genomic	percent genomic	coverage
A	1898754	24.88	5124	30.93	370.561
C	999306	13.10	5181	31.27	192.879
G	2397940	31.43	2169	13.09	1105.551
T	2334631	30.60	4094	24.71	570.257
AA	439099	5.84	1604	9.68	273.752
AC	187941	2.50	1495	9.02	125.713
AG	674053	8.97	795	4.80	847.865
AT	572838	7.63	1230	7.42	465.722
CA	240907	3.21	1534	9.26	157.045
CC	205203	2.73	1771	10.69	115.868
CG	192541	2.56	435	2.63	442.623
CT	346195	4.61	1440	8.69	240.413
GA	566653	7.54	613	3.70	924.393
GC	323467	4.31	711	4.29	454.947
GG	789726	10.51	425	2.57	1858.179
GT	679287	9.04	419	2.53	1621.210
TA	621197	8.27	1373	8.29	452.438
TC	266079	3.54	1204	7.27	220.996
TG	704870	9.38	513	3.10	1374.016
TT	702363	9.35	1004	6.06	699.565
