(di-)nucleotide	count sample	percent sample	count genomic	percent genomic	coverage
A	919707	25.64	5124	30.93	179.490
C	576633	16.07	5181	31.27	111.298
G	1017540	28.36	2169	13.09	469.129
T	1073529	29.92	4094	24.71	262.220
AA	222122	6.29	1604	9.68	138.480
AC	123273	3.49	1495	9.02	82.457
AG	292543	8.28	795	4.80	367.979
AT	269554	7.63	1230	7.42	219.150
CA	146083	4.14	1534	9.26	95.230
CC	141677	4.01	1771	10.69	79.998
CG	91317	2.58	435	2.63	209.924
CT	189518	5.36	1440	8.69	131.610
GA	245099	6.94	613	3.70	399.835
GC	153662	4.35	711	4.29	216.121
GG	322135	9.12	425	2.57	757.965
GT	280452	7.94	419	2.53	669.337
TA	290999	8.24	1373	8.29	211.944
TC	148892	4.21	1204	7.27	123.664
TG	296574	8.39	513	3.10	578.117
TT	318890	9.03	1004	6.06	317.620
