CpG context (R1)
================
position	count methylated	count unmethylated	% methylation	coverage
1	21871	8206	72.72	30077
2	21194	7724	73.29	28918
3	22193	7056	75.88	29249
4	21748	7631	74.03	29379
5	22672	8154	73.55	30826
6	21472	7597	73.87	29069
7	21201	8038	72.51	29239
8	19340	7771	71.34	27111
9	21176	8214	72.05	29390
10	20147	8025	71.51	28172
11	18731	7789	70.63	26520
12	17635	7696	69.62	25331
13	17307	7795	68.95	25102
14	17765	7638	69.93	25403
15	17450	7745	69.26	25195
16	17156	7761	68.85	24917
17	17540	8109	68.38	25649
18	17375	8833	66.30	26208
19	16843	8618	66.15	25461
20	16796	8629	66.06	25425
21	16571	7884	67.76	24455
22	16338	8078	66.92	24416
23	17225	8144	67.90	25369
24	17935	8188	68.66	26123
25	18213	8737	67.58	26950
26	17823	8253	68.35	26076
27	16999	8166	67.55	25165
28	16745	8373	66.67	25118
29	17100	8046	68.00	25146
30	17421	7551	69.76	24972
31	17077	7763	68.75	24840
32	17076	7484	69.53	24560
33	17279	7390	70.04	24669
34	16922	8041	67.79	24963
35	16162	7550	68.16	23712
36	16475	7261	69.41	23736
37	16831	7557	69.01	24388
38	16790	7519	69.07	24309
39	16977	7997	67.98	24974
40	17273	7442	69.89	24715
41	17350	7570	69.62	24920
42	17733	7341	70.72	25074
43	17180	7314	70.14	24494
44	16829	7408	69.44	24237
45	16621	7243	69.65	23864
46	16319	7395	68.82	23714
47	16652	7284	69.57	23936
48	16681	7062	70.26	23743
49	16842	7638	68.80	24480
50	16325	7293	69.12	23618
51	16666	7332	69.45	23998
52	15936	7205	68.86	23141
53	16506	6973	70.30	23479
54	16451	6696	71.07	23147
55	16596	6762	71.05	23358
56	16844	6468	72.25	23312
57	16354	6696	70.95	23050
58	15848	6827	69.89	22675
59	15351	6485	70.30	21836
60	14987	6504	69.74	21491
61	15116	6763	69.09	21879
62	15348	6804	69.28	22152
63	14668	6262	70.08	20930
64	14956	6441	69.90	21397
65	14481	6046	70.55	20527
66	14121	5718	71.18	19839
67	13968	5830	70.55	19798
68	13767	5609	71.05	19376

CHG context (R1)
================
position	count methylated	count unmethylated	% methylation	coverage
1	1451	84862	1.68	86313
2	1231	78089	1.55	79320
3	1200	75919	1.56	77119
4	1052	74451	1.39	75503
5	1032	74532	1.37	75564
6	1061	77426	1.35	78487
7	1016	76749	1.31	77765
8	933	79366	1.16	80299
9	1021	81023	1.24	82044
10	880	80769	1.08	81649
11	803	79132	1.00	79935
12	963	88185	1.08	89148
13	911	85612	1.05	86523
14	920	84685	1.07	85605
15	955	85392	1.11	86347
16	806	84921	0.94	85727
17	978	87469	1.11	88447
18	848	84165	1.00	85013
19	816	82076	0.98	82892
20	848	81591	1.03	82439
21	884	85904	1.02	86788
22	890	85338	1.03	86228
23	870	84301	1.02	85171
24	833	85492	0.96	86325
25	970	84735	1.13	85705
26	1049	84698	1.22	85747
27	964	84021	1.13	84985
28	1018	82156	1.22	83174
29	1147	83835	1.35	84982
30	1150	85725	1.32	86875
31	1184	86157	1.36	87341
32	1161	87094	1.32	88255
33	1258	88233	1.41	89491
34	1233	85343	1.42	86576
35	1277	83874	1.50	85151
36	1306	86764	1.48	88070
37	1319	84403	1.54	85722
38	1239	82002	1.49	83241
39	1208	80820	1.47	82028
40	1346	81304	1.63	82650
41	1469	81423	1.77	82892
42	1321	82665	1.57	83986
43	1417	81159	1.72	82576
44	1375	78750	1.72	80125
45	1306	77073	1.67	78379
46	1332	77594	1.69	78926
47	1459	77291	1.85	78750
48	1482	76948	1.89	78430
49	1376	77390	1.75	78766
50	1561	76664	2.00	78225
51	1359	74692	1.79	76051
52	1483	73661	1.97	75144
53	1468	74120	1.94	75588
54	1465	74824	1.92	76289
55	1440	76036	1.86	77476
56	1504	74622	1.98	76126
57	1649	73907	2.18	75556
58	1566	70866	2.16	72432
59	1555	70456	2.16	72011
60	1605	71197	2.20	72802
61	1674	72033	2.27	73707
62	1609	69878	2.25	71487
63	1522	68190	2.18	69712
64	1608	67966	2.31	69574
65	1600	67388	2.32	68988
66	1572	66708	2.30	68280
67	1522	64130	2.32	65652
68	1522	63600	2.34	65122

CHH context (R1)
================
position	count methylated	count unmethylated	% methylation	coverage
1	4051	194687	2.04	198738
2	3510	173047	1.99	176557
3	3242	162720	1.95	165962
4	3093	162350	1.87	165443
5	2897	169952	1.68	172849
6	2926	173366	1.66	176292
7	2840	185711	1.51	188551
8	2565	188122	1.35	190687
9	2727	194507	1.38	197234
10	2698	196361	1.36	199059
11	2693	205551	1.29	208244
12	2638	207412	1.26	210050
13	2845	207506	1.35	210351
14	2620	208649	1.24	211269
15	2791	212092	1.30	214883
16	2783	216517	1.27	219300
17	2727	214656	1.25	217383
18	2629	214108	1.21	216737
19	2715	220661	1.22	223376
20	2659	223774	1.17	226433
21	2663	220898	1.19	223561
22	2673	217921	1.21	220594
23	2710	216915	1.23	219625
24	2853	221276	1.27	224129
25	2794	217601	1.27	220395
26	2579	216541	1.18	219120
27	2795	216158	1.28	218953
28	2651	211844	1.24	214495
29	2733	209336	1.29	212069
30	2801	209098	1.32	211899
31	2807	210522	1.32	213329
32	2737	208733	1.29	211470
33	2780	206013	1.33	208793
34	2801	203784	1.36	206585
35	2669	202758	1.30	205427
36	2790	202063	1.36	204853
37	2654	202319	1.29	204973
38	2616	202501	1.28	205117
39	2781	201971	1.36	204752
40	2867	200762	1.41	203629
41	2797	200664	1.37	203461
42	2792	199146	1.38	201938
43	2777	195739	1.40	198516
44	2670	195301	1.35	197971
45	2784	193362	1.42	196146
46	2738	192262	1.40	195000
47	2825	192184	1.45	195009
48	2650	190915	1.37	193565
49	2674	189194	1.39	191868
50	2717	188054	1.42	190771
51	2844	187738	1.49	190582
52	2736	187392	1.44	190128
53	2599	190629	1.35	193228
54	2821	188595	1.47	191416
55	2683	185569	1.43	188252
56	2782	181664	1.51	184446
57	2873	178551	1.58	181424
58	2789	176655	1.55	179444
59	2710	178543	1.50	181253
60	2721	177043	1.51	179764
61	2687	172303	1.54	174990
62	2638	169372	1.53	172010
63	2653	167476	1.56	170129
64	2534	164571	1.52	167105
65	2791	162075	1.69	164866
66	2747	158766	1.70	161513
67	2496	157305	1.56	159801
68	2443	156741	1.53	159184

CpG context (R2)
================
position	count methylated	count unmethylated	% methylation	coverage
1	7122	5511	56.38	12633
2	8011	5681	58.51	13692
3	13075	6459	66.93	19534
4	6817	3955	63.28	10772
5	8029	4439	64.40	12468
6	7887	4177	65.38	12064
7	9663	4553	67.97	14216
8	7373	4259	63.39	11632
9	7336	4756	60.67	12092
10	10093	3854	72.37	13947
11	8054	4287	65.26	12341
12	10027	6175	61.89	16202
13	8752	4202	67.56	12954
14	9807	3851	71.80	13658
15	7027	5098	57.95	12125
16	7606	4480	62.93	12086
17	10282	5033	67.14	15315
18	8155	4657	63.65	12812
19	12541	4785	72.38	17326
20	7858	3501	69.18	11359
21	9401	4498	67.64	13899
22	7744	3812	67.01	11556
23	11662	4059	74.18	15721
24	7153	3180	69.22	10333
25	7999	3159	71.69	11158
26	6900	4709	59.44	11609
27	12744	3634	77.81	16378
28	6818	3020	69.30	9838
29	11469	3281	77.76	14750
30	7741	3260	70.37	11001
31	8484	3447	71.11	11931
32	7112	3542	66.75	10654
33	10871	3938	73.41	14809
34	7121	3310	68.27	10431
35	10514	3823	73.33	14337
36	6084	2623	69.87	8707
37	7055	3767	65.19	10822
38	6139	2588	70.34	8727
39	9238	3119	74.76	12357
40	5910	2619	69.29	8529
41	7032	2537	73.49	9569
42	6325	3752	62.77	10077
43	7629	3258	70.07	10887
44	5460	3113	63.69	8573
45	5097	2759	64.88	7856
46	5561	2659	67.65	8220
47	6889	3230	68.08	10119
48	4616	2292	66.82	6908
49	6046	3056	66.42	9102
50	4961	3214	60.69	8175
51	6489	2687	70.72	9176
52	4453	2011	68.89	6464
53	5803	2586	69.17	8389
54	4584	2676	63.14	7260
55	4742	2969	61.50	7711
56	4381	2130	67.29	6511
57	5798	2104	73.37	7902
58	4434	1741	71.81	6175
59	5689	2048	73.53	7737
60	4034	2499	61.75	6533
61	5657	2470	69.61	8127
62	4118	2071	66.54	6189
63	4350	2316	65.26	6666
64	3651	1678	68.51	5329
65	4909	2219	68.87	7128
66	3711	2429	60.44	6140
67	4247	1818	70.02	6065
68	3561	2001	64.02	5562

CHG context (R2)
================
position	count methylated	count unmethylated	% methylation	coverage
1	781	105328	0.74	106109
2	597	64975	0.91	65572
3	736	76907	0.95	77643
4	563	61736	0.90	62299
5	641	59146	1.07	59787
6	590	56451	1.03	57041
7	579	51602	1.11	52181
8	658	56004	1.16	56662
9	535	52220	1.01	52755
10	536	49985	1.06	50521
11	791	67770	1.15	68561
12	599	50831	1.16	51430
13	557	45297	1.21	45854
14	674	58945	1.13	59619
15	616	48775	1.25	49391
16	605	48539	1.23	49144
17	560	43680	1.27	44240
18	671	47173	1.40	47844
19	637	52304	1.20	52941
20	693	64604	1.06	65297
21	386	41018	0.93	41404
22	527	49327	1.06	49854
23	560	38491	1.43	39051
24	524	39982	1.29	40506
25	452	36398	1.23	36850
26	488	36627	1.31	37115
27	430	39715	1.07	40145
28	533	45621	1.15	46154
29	524	37899	1.36	38423
30	422	34422	1.21	34844
31	415	33358	1.23	33773
32	491	32940	1.47	33431
33	563	40197	1.38	40760
34	471	37568	1.24	38039
35	421	36802	1.13	37223
36	380	32591	1.15	32971
37	423	39874	1.05	40297
38	487	39756	1.21	40243
39	431	36235	1.18	36666
40	438	36950	1.17	37388
41	398	31546	1.25	31944
42	409	28558	1.41	28967
43	375	32738	1.13	33113
44	490	36955	1.31	37445
45	330	26573	1.23	26903
46	376	31798	1.17	32174
47	362	29171	1.23	29533
48	293	27701	1.05	27994
49	338	24614	1.35	24952
50	355	25665	1.36	26020
51	328	26257	1.23	26585
52	296	26781	1.09	27077
53	267	23292	1.13	23559
54	334	22539	1.46	22873
55	250	21721	1.14	21971
56	324	21831	1.46	22155
57	291	21842	1.31	22133
58	246	22079	1.10	22325
59	400	25255	1.56	25655
60	260	19231	1.33	19491
61	284	19503	1.44	19787
62	304	20298	1.48	20602
63	253	20566	1.22	20819
64	284	19937	1.40	20221
65	297	20398	1.44	20695
66	260	21609	1.19	21869
67	286	19046	1.48	19332
68	234	22888	1.01	23122

CHH context (R2)
================
position	count methylated	count unmethylated	% methylation	coverage
1	1356	86663	1.54	88019
2	1970	150910	1.29	152880
3	1889	148354	1.26	150243
4	1956	137780	1.40	139736
5	2180	162656	1.32	164836
6	1923	153832	1.23	155755
7	1950	146381	1.31	148331
8	2062	153074	1.33	155136
9	1812	132711	1.35	134523
10	1923	131120	1.45	133043
11	1901	134953	1.39	136854
12	1954	149200	1.29	151154
13	1814	143758	1.25	145572
14	1793	121762	1.45	123555
15	1676	125290	1.32	126966
16	1601	127068	1.24	128669
17	1644	119523	1.36	121167
18	1449	105376	1.36	106825
19	1890	120430	1.55	122320
20	1813	122553	1.46	124366
21	1937	141345	1.35	143282
22	1646	104046	1.56	105692
23	1763	107427	1.61	109190
24	1714	104566	1.61	106280
25	1848	115768	1.57	117616
26	1554	97694	1.57	99248
27	1577	112366	1.38	113943
28	1228	96916	1.25	98144
29	1429	103686	1.36	105115
30	1379	94748	1.43	96127
31	1244	99350	1.24	100594
32	1314	92074	1.41	93388
33	1183	89318	1.31	90501
34	1343	94990	1.39	96333
35	1371	94686	1.43	96057
36	1167	84014	1.37	85181
37	1275	87174	1.44	88449
38	1334	87568	1.50	88902
39	1397	87838	1.57	89235
40	1266	84419	1.48	85685
41	1304	76813	1.67	78117
42	1222	77962	1.54	79184
43	1232	79031	1.53	80263
44	1371	80901	1.67	82272
45	1369	80576	1.67	81945
46	1172	72136	1.60	73308
47	1406	76947	1.79	78353
48	1314	71832	1.80	73146
49	1408	73773	1.87	75181
50	1319	70196	1.84	71515
51	1150	72724	1.56	73874
52	965	67003	1.42	67968
53	1249	75822	1.62	77071
54	1290	64895	1.95	66185
55	1335	65547	2.00	66882
56	1157	68806	1.65	69963
57	991	62496	1.56	63487
58	1068	63340	1.66	64408
59	1063	64300	1.63	65363
60	964	63327	1.50	64291
61	1069	63706	1.65	64775
62	1052	57209	1.81	58261
63	1065	56089	1.86	57154
64	1072	58312	1.81	59384
65	1013	55276	1.80	56289
66	882	55259	1.57	56141
67	953	53746	1.74	54699
68	840	53326	1.55	54166

