CpG context (R1)
================
position	count methylated	count unmethylated	% methylation	coverage
1	22376	11813	65.45	34189
2	21580	11262	65.71	32842
3	22186	10037	68.85	32223
4	22631	10727	67.84	33358
5	23534	11005	68.14	34539
6	23054	10439	68.83	33493
7	22737	11136	67.12	33873
8	21302	10897	66.16	32199
9	22852	11742	66.06	34594
10	21818	11400	65.68	33218
11	19959	11397	63.65	31356
12	19181	10733	64.12	29914
13	19705	11223	63.71	30928
14	19794	10963	64.36	30757
15	19368	10840	64.12	30208
16	19130	10906	63.69	30036
17	19781	11421	63.40	31202
18	19537	11648	62.65	31185
19	18969	11905	61.44	30874
20	18054	11881	60.31	29935
21	17802	11235	61.31	29037
22	17488	11198	60.96	28686
23	18650	11527	61.80	30177
24	19692	11671	62.79	31363
25	19967	11936	62.59	31903
26	19466	11844	62.17	31310
27	18952	11686	61.86	30638
28	18364	11612	61.26	29976
29	18414	11466	61.63	29880
30	18069	10921	62.33	28990
31	18641	11046	62.79	29687
32	18349	10720	63.12	29069
33	18658	11037	62.83	29695
34	18377	11366	61.79	29743
35	17381	10934	61.38	28315
36	17796	10186	63.60	27982
37	17656	10752	62.15	28408
38	18222	10673	63.06	28895
39	18112	10942	62.34	29054
40	18550	10496	63.86	29046
41	18913	10580	64.13	29493
42	18825	10671	63.82	29496
43	17847	10310	63.38	28157
44	17455	10618	62.18	28073
45	17725	10515	62.77	28240
46	17546	10561	62.43	28107
47	17586	10302	63.06	27888
48	17435	9966	63.63	27401
49	18097	10841	62.54	28938
50	17557	10687	62.16	28244
51	17290	10147	63.02	27437
52	16773	9960	62.74	26733
53	16937	9931	63.04	26868
54	17015	9661	63.78	26676
55	17031	9474	64.26	26505
56	17002	9342	64.54	26344
57	16738	9620	63.50	26358
58	16804	9363	64.22	26167
59	15823	9358	62.84	25181
60	15359	9382	62.08	24741
61	15741	9475	62.42	25216
62	15494	9266	62.58	24760
63	15161	9043	62.64	24204
64	15263	9474	61.70	24737
65	15384	8782	63.66	24166
66	14981	8197	64.63	23178
67	14493	8360	63.42	22853
68	14075	8146	63.34	22221

CHG context (R1)
================
position	count methylated	count unmethylated	% methylation	coverage
1	1588	103401	1.51	104989
2	1396	93717	1.47	95113
3	1272	90205	1.39	91477
4	1199	87740	1.35	88939
5	1185	86078	1.36	87263
6	1182	87873	1.33	89055
7	1134	87877	1.27	89011
8	1146	91526	1.24	92672
9	1088	94665	1.14	95753
10	1033	94474	1.08	95507
11	1007	92551	1.08	93558
12	1121	100232	1.11	101353
13	1125	97677	1.14	98802
14	1110	98165	1.12	99275
15	1113	98401	1.12	99514
16	1118	98816	1.12	99934
17	1114	101362	1.09	102476
18	1135	97524	1.15	98659
19	979	96042	1.01	97021
20	1025	95236	1.06	96261
21	1001	97117	1.02	98118
22	1048	97921	1.06	98969
23	1081	99162	1.08	100243
24	1079	98754	1.08	99833
25	1201	98306	1.21	99507
26	1259	98262	1.27	99521
27	1252	97524	1.27	98776
28	1413	96882	1.44	98295
29	1462	97593	1.48	99055
30	1519	98407	1.52	99926
31	1520	98992	1.51	100512
32	1568	100836	1.53	102404
33	1601	102948	1.53	104549
34	1589	100397	1.56	101986
35	1649	97663	1.66	99312
36	1687	99646	1.66	101333
37	1582	96824	1.61	98406
38	1561	94500	1.63	96061
39	1648	93631	1.73	95279
40	1687	95523	1.74	97210
41	1771	96083	1.81	97854
42	1739	95515	1.79	97254
43	1608	93769	1.69	95377
44	1646	91384	1.77	93030
45	1626	89391	1.79	91017
46	1622	89492	1.78	91114
47	1736	89309	1.91	91045
48	1649	89357	1.81	91006
49	1778	90271	1.93	92049
50	1811	88950	2.00	90761
51	1674	87417	1.88	89091
52	1694	86134	1.93	87828
53	1723	86118	1.96	87841
54	1730	85903	1.97	87633
55	1683	87301	1.89	88984
56	1743	86613	1.97	88356
57	1739	86170	1.98	87909
58	1818	82081	2.17	83899
59	1801	81417	2.16	83218
60	1842	82640	2.18	84482
61	1754	82797	2.07	84551
62	1785	81813	2.14	83598
63	1733	80008	2.12	81741
64	1768	79455	2.18	81223
65	1806	78280	2.26	80086
66	1786	77906	2.24	79692
67	1648	74258	2.17	75906
68	1730	74110	2.28	75840

CHH context (R1)
================
position	count methylated	count unmethylated	% methylation	coverage
1	4045	231507	1.72	235552
2	3388	203910	1.63	207298
3	3117	191372	1.60	194489
4	3103	189654	1.61	192757
5	3062	197304	1.53	200366
6	3251	200005	1.60	203256
7	3002	213207	1.39	216209
8	2885	216337	1.32	219222
9	2830	227619	1.23	230449
10	2810	228819	1.21	231629
11	2846	239559	1.17	242405
12	2873	241201	1.18	244074
13	2947	243151	1.20	246098
14	2828	246800	1.13	249628
15	2815	247905	1.12	250720
16	2934	253678	1.14	256612
17	2919	255194	1.13	258113
18	2878	254368	1.12	257246
19	2851	260375	1.08	263226
20	2876	260432	1.09	263308
21	2895	260583	1.10	263478
22	2828	258509	1.08	261337
23	2863	258678	1.09	261541
24	2951	263041	1.11	265992
25	2993	258193	1.15	261186
26	2872	258289	1.10	261161
27	3070	256736	1.18	259806
28	2991	251791	1.17	254782
29	3054	249221	1.21	252275
30	2910	249022	1.16	251932
31	3093	252232	1.21	255325
32	3006	250234	1.19	253240
33	3102	246155	1.24	249257
34	3110	243613	1.26	246723
35	2859	242592	1.16	245451
36	2939	240786	1.21	243725
37	3122	241077	1.28	244199
38	2945	241810	1.20	244755
39	3064	240709	1.26	243773
40	3135	242382	1.28	245517
41	2994	241282	1.23	244276
42	3059	238276	1.27	241335
43	2963	234596	1.25	237559
44	3001	231947	1.28	234948
45	2917	233153	1.24	236070
46	2924	230543	1.25	233467
47	2838	230153	1.22	232991
48	2971	230021	1.28	232992
49	2886	227425	1.25	230311
50	2915	225964	1.27	228879
51	2885	225273	1.26	228158
52	2837	225035	1.24	227872
53	2839	227405	1.23	230244
54	2887	225436	1.26	228323
55	2927	224237	1.29	227164
56	2946	220770	1.32	223716
57	2859	217474	1.30	220333
58	2853	216018	1.30	218871
59	2796	217258	1.27	220054
60	2733	214538	1.26	217271
61	2809	211838	1.31	214647
62	2820	208317	1.34	211137
63	2781	205817	1.33	208598
64	2746	203447	1.33	206193
65	2740	199681	1.35	202421
66	2702	196299	1.36	199001
67	2730	194997	1.38	197727
68	2656	195999	1.34	198655

CpG context (R2)
================
position	count methylated	count unmethylated	% methylation	coverage
1	8270	8113	50.48	16383
2	8766	8918	49.57	17684
3	13366	10350	56.36	23716
4	7672	5945	56.34	13617
5	9098	6845	57.07	15943
6	9473	6564	59.07	16037
7	10769	6856	61.10	17625
8	8423	6236	57.46	14659
9	8628	7083	54.92	15711
10	10835	6043	64.20	16878
11	9538	6293	60.25	15831
12	10931	8045	57.60	18976
13	10808	6217	63.48	17025
14	11046	6050	64.61	17096
15	8314	7029	54.19	15343
16	8827	6366	58.10	15193
17	11480	7032	62.01	18512
18	9443	6536	59.10	15979
19	14049	7097	66.44	21146
20	9879	5406	64.63	15285
21	11205	6702	62.57	17907
22	9395	5743	62.06	15138
23	13085	5994	68.58	19079
24	8873	5107	63.47	13980
25	9552	5264	64.47	14816
26	8281	6630	55.54	14911
27	14121	5876	70.62	19997
28	8115	4842	62.63	12957
29	12398	5428	69.55	17826
30	9313	5473	62.99	14786
31	10273	5465	65.28	15738
32	8845	5694	60.84	14539
33	12045	5951	66.93	17996
34	8823	5238	62.75	14061
35	12159	5910	67.29	18069
36	7640	4431	63.29	12071
37	8503	5186	62.12	13689
38	7167	4442	61.74	11609
39	10144	5467	64.98	15611
40	7028	4191	62.64	11219
41	8476	4212	66.80	12688
42	7611	5572	57.73	13183
43	9140	4988	64.69	14128
44	6698	4729	58.62	11427
45	6351	4423	58.95	10774
46	7121	4578	60.87	11699
47	8134	4711	63.32	12845
48	5728	3685	60.85	9413
49	6989	4660	60.00	11649
50	6026	5042	54.45	11068
51	7552	4374	63.32	11926
52	5516	3417	61.75	8933
53	6924	4115	62.72	11039
54	6040	4218	58.88	10258
55	6016	4423	57.63	10439
56	5609	3538	61.32	9147
57	6735	3484	65.91	10219
58	5598	3430	62.01	9028
59	6871	3407	66.85	10278
60	5168	3941	56.74	9109
61	6538	3962	62.27	10500
62	5117	3561	58.97	8678
63	5404	3842	58.45	9246
64	4743	3014	61.14	7757
65	5876	3530	62.47	9406
66	4766	3520	57.52	8286
67	5541	3137	63.85	8678
68	4429	3398	56.59	7827

CHG context (R2)
================
position	count methylated	count unmethylated	% methylation	coverage
1	993	128544	0.77	129537
2	773	83179	0.92	83952
3	827	91196	0.90	92023
4	648	75325	0.85	75973
5	666	69602	0.95	70268
6	669	69778	0.95	70447
7	601	63404	0.94	64005
8	625	68385	0.91	69010
9	574	65097	0.87	65671
10	583	62121	0.93	62704
11	816	81227	0.99	82043
12	614	61927	0.98	62541
13	556	57147	0.96	57703
14	682	70259	0.96	70941
15	604	60780	0.98	61384
16	580	59865	0.96	60445
17	573	56035	1.01	56608
18	620	60877	1.01	61497
19	740	65016	1.13	65756
20	718	76567	0.93	77285
21	462	52404	0.87	52866
22	583	60841	0.95	61424
23	476	48925	0.96	49401
24	545	50773	1.06	51318
25	466	46450	0.99	46916
26	501	47520	1.04	48021
27	514	50487	1.01	51001
28	598	58047	1.02	58645
29	533	48578	1.09	49111
30	459	44630	1.02	45089
31	454	44371	1.01	44825
32	452	43878	1.02	44330
33	592	51172	1.14	51764
34	534	47877	1.10	48411
35	459	47932	0.95	48391
36	448	43648	1.02	44096
37	510	51066	0.99	51576
38	484	51387	0.93	51871
39	480	47702	1.00	48182
40	460	48376	0.94	48836
41	427	42413	1.00	42840
42	431	38408	1.11	38839
43	451	44207	1.01	44658
44	478	47101	1.00	47579
45	389	35732	1.08	36121
46	438	41667	1.04	42105
47	420	40705	1.02	41125
48	365	38258	0.95	38623
49	342	33930	1.00	34272
50	367	35447	1.02	35814
51	343	35779	0.95	36122
52	360	36937	0.97	37297
53	353	31802	1.10	32155
54	376	31921	1.16	32297
55	314	30851	1.01	31165
56	359	31082	1.14	31441
57	297	30536	0.96	30833
58	331	30980	1.06	31311
59	400	34525	1.15	34925
60	329	27615	1.18	27944
61	291	28238	1.02	28529
62	357	29103	1.21	29460
63	302	28987	1.03	29289
64	320	28039	1.13	28359
65	283	28831	0.97	29114
66	314	29670	1.05	29984
67	283	27230	1.03	27513
68	271	31141	0.86	31412

CHH context (R2)
================
position	count methylated	count unmethylated	% methylation	coverage
1	1238	107139	1.14	108377
2	1829	184686	0.98	186515
3	2040	190246	1.06	192286
4	1910	179369	1.05	181279
5	1998	203009	0.97	205007
6	2000	188379	1.05	190379
7	1845	181502	1.01	183347
8	1950	191705	1.01	193655
9	1683	171405	0.97	173088
10	1726	167367	1.02	169093
11	1838	170938	1.06	172776
12	1831	183393	0.99	185224
13	1831	177437	1.02	179268
14	1650	154580	1.06	156230
15	1606	158736	1.00	160342
16	1731	162500	1.05	164231
17	1635	153113	1.06	154748
18	1384	139149	0.98	140533
19	1708	153017	1.10	154725
20	1802	158134	1.13	159936
21	1888	176064	1.06	177952
22	1515	136976	1.09	138491
23	1582	140396	1.11	141978
24	1527	137265	1.10	138792
25	1678	148884	1.11	150562
26	1474	129264	1.13	130738
27	1522	144512	1.04	146034
28	1318	128038	1.02	129356
29	1402	135540	1.02	136942
30	1315	124660	1.04	125975
31	1316	130736	1.00	132052
32	1273	123528	1.02	124801
33	1245	121463	1.01	122708
34	1219	126252	0.96	127471
35	1383	126711	1.08	128094
36	1214	113847	1.06	115061
37	1277	117802	1.07	119079
38	1284	117920	1.08	119204
39	1313	118821	1.09	120134
40	1332	117338	1.12	118670
41	1221	108384	1.11	109605
42	1228	108543	1.12	109771
43	1222	111349	1.09	112571
44	1284	113470	1.12	114754
45	1260	111168	1.12	112428
46	1140	101846	1.11	102986
47	1228	106717	1.14	107945
48	1192	103103	1.14	104295
49	1274	104592	1.20	105866
50	1148	100582	1.13	101730
51	1145	104066	1.09	105211
52	1008	97313	1.03	98321
53	1193	106693	1.11	107886
54	1120	93397	1.18	94517
55	1075	95218	1.12	96293
56	1062	98091	1.07	99153
57	1044	91791	1.12	92835
58	1025	93176	1.09	94201
59	1021	94544	1.07	95565
60	958	91889	1.03	92847
61	1057	92409	1.13	93466
62	972	85785	1.12	86757
63	976	84103	1.15	85079
64	991	86353	1.13	87344
65	939	83083	1.12	84022
66	908	82891	1.08	83799
67	896	81741	1.08	82637
68	680	80516	0.84	81196

