CpG context (R1)
================
position	count methylated	count unmethylated	% methylation	coverage
1	26828	7623	77.87	34451
2	25784	7267	78.01	33051
3	26427	7078	78.87	33505
4	27250	7290	78.89	34540
5	27816	7565	78.62	35381
6	26455	7346	78.27	33801
7	26395	7612	77.62	34007
8	24206	7505	76.33	31711
9	25166	7855	76.21	33021
10	24446	7923	75.52	32369
11	22770	7666	74.81	30436
12	21925	7726	73.94	29651
13	22414	7952	73.81	30366
14	22015	7699	74.09	29714
15	21980	7856	73.67	29836
16	21879	7827	73.65	29706
17	22400	8049	73.57	30449
18	22226	8240	72.95	30466
19	21739	8142	72.75	29881
20	21240	7955	72.75	29195
21	21358	7920	72.95	29278
22	21005	7781	72.97	28786
23	21697	8015	73.02	29712
24	22536	7919	74.00	30455
25	22770	8202	73.52	30972
26	22440	8040	73.62	30480
27	21929	8160	72.88	30089
28	21501	7968	72.96	29469
29	21673	7804	73.53	29477
30	21151	7748	73.19	28899
31	21364	7607	73.74	28971
32	21158	7726	73.25	28884
33	21460	7793	73.36	29253
34	21454	7719	73.54	29173
35	20462	7382	73.49	27844
36	20846	7399	73.80	28245
37	20654	7540	73.26	28194
38	21142	7563	73.65	28705
39	21178	7535	73.76	28713
40	21295	7481	74.00	28776
41	21848	7578	74.25	29426
42	22041	7519	74.56	29560
43	20796	7331	73.94	28127
44	20730	7321	73.90	28051
45	20347	7262	73.70	27609
46	20326	7422	73.25	27748
47	20199	7196	73.73	27395
48	20364	7098	74.15	27462
49	20556	7341	73.69	27897
50	20312	7216	73.79	27528
51	19997	7120	73.74	27117
52	20034	7016	74.06	27050
53	19916	7076	73.78	26992
54	20235	6841	74.73	27076
55	20180	7023	74.18	27203
56	20385	6894	74.73	27279
57	20044	6765	74.77	26809
58	19501	6837	74.04	26338
59	19004	6655	74.06	25659
60	18525	6473	74.11	24998
61	18705	6545	74.08	25250
62	18651	6331	74.66	24982
63	18406	6459	74.02	24865
64	18466	6368	74.36	24834
65	18188	6270	74.36	24458
66	17942	5882	75.31	23824
67	17505	6032	74.37	23537
68	17165	5990	74.13	23155

CHG context (R1)
================
position	count methylated	count unmethylated	% methylation	coverage
1	1550	93606	1.63	95156
2	1395	86527	1.59	87922
3	1493	86790	1.69	88283
4	1243	86869	1.41	88112
5	1270	85427	1.46	86697
6	1268	87463	1.43	88731
7	1212	87411	1.37	88623
8	1137	89700	1.25	90837
9	1330	92643	1.42	93973
10	1071	92499	1.14	93570
11	955	91250	1.04	92205
12	1165	98629	1.17	99794
13	1114	95656	1.15	96770
14	1150	95896	1.19	97046
15	1031	96055	1.06	97086
16	962	95480	1.00	96442
17	1205	98446	1.21	99651
18	1012	95374	1.05	96386
19	1030	93563	1.09	94593
20	1044	93249	1.11	94293
21	998	95565	1.03	96563
22	1055	95517	1.09	96572
23	975	97138	0.99	98113
24	1049	97209	1.07	98258
25	1106	95914	1.14	97020
26	1123	96154	1.15	97277
27	1149	94642	1.20	95791
28	1249	94512	1.30	95761
29	1294	94198	1.36	95492
30	1339	96417	1.37	97756
31	1454	97187	1.47	98641
32	1471	98275	1.47	99746
33	1544	99794	1.52	101338
34	1440	97469	1.46	98909
35	1592	95714	1.64	97306
36	1594	98146	1.60	99740
37	1496	94658	1.56	96154
38	1460	93618	1.54	95078
39	1496	92060	1.60	93556
40	1600	92970	1.69	94570
41	1737	93271	1.83	95008
42	1568	94212	1.64	95780
43	1725	91506	1.85	93231
44	1510	90260	1.65	91770
45	1445	89158	1.59	90603
46	1563	88194	1.74	89757
47	1755	89030	1.93	90785
48	1685	89052	1.86	90737
49	1515	89940	1.66	91455
50	1895	87176	2.13	89071
51	1620	86281	1.84	87901
52	1670	84768	1.93	86438
53	1729	85180	1.99	86909
54	1703	86196	1.94	87899
55	1724	86901	1.95	88625
56	1729	85509	1.98	87238
57	1724	84952	1.99	86676
58	1829	82149	2.18	83978
59	1855	81082	2.24	82937
60	1821	80867	2.20	82688
61	1886	81313	2.27	83199
62	1703	79954	2.09	81657
63	1750	78671	2.18	80421
64	1794	78375	2.24	80169
65	1792	77156	2.27	78948
66	1821	76898	2.31	78719
67	1791	74393	2.35	76184
68	1693	72940	2.27	74633

CHH context (R1)
================
position	count methylated	count unmethylated	% methylation	coverage
1	5050	206582	2.39	211632
2	4594	185401	2.42	189995
3	4357	176926	2.40	181283
4	4134	176084	2.29	180218
5	3887	181416	2.10	185303
6	3913	184169	2.08	188082
7	3600	197881	1.79	201481
8	3357	203794	1.62	207151
9	3735	212029	1.73	215764
10	3479	213535	1.60	217014
11	3751	221937	1.66	225688
12	3526	223246	1.55	226772
13	3860	224812	1.69	228672
14	3636	228059	1.57	231695
15	3643	230390	1.56	234033
16	3903	234423	1.64	238326
17	3844	234830	1.61	238674
18	3611	234643	1.52	238254
19	3575	239331	1.47	242906
20	3551	240535	1.45	244086
21	3562	239414	1.47	242976
22	3596	237270	1.49	240866
23	3681	237238	1.53	240919
24	3875	241682	1.58	245557
25	3763	236013	1.57	239776
26	3562	236534	1.48	240096
27	3993	235717	1.67	239710
28	3748	232363	1.59	236111
29	3762	231267	1.60	235029
30	3659	232173	1.55	235832
31	3958	233355	1.67	237313
32	3580	229986	1.53	233566
33	3859	228391	1.66	232250
34	3764	225442	1.64	229206
35	3536	224720	1.55	228256
36	3553	224692	1.56	228245
37	3537	224169	1.55	227706
38	3650	225159	1.60	228809
39	3743	226331	1.63	230074
40	4032	225418	1.76	229450
41	3925	223493	1.73	227418
42	3644	221312	1.62	224956
43	3828	218189	1.72	222017
44	3686	216465	1.67	220151
45	3841	213211	1.77	217052
46	3738	214088	1.72	217826
47	3667	212078	1.70	215745
48	3708	212881	1.71	216589
49	3678	209606	1.72	213284
50	3496	207793	1.65	211289
51	3787	207466	1.79	211253
52	3848	206446	1.83	210294
53	3556	209371	1.67	212927
54	3737	206393	1.78	210130
55	3592	202870	1.74	206462
56	3792	200118	1.86	203910
57	3783	198242	1.87	202025
58	3859	195909	1.93	199768
59	3550	195711	1.78	199261
60	3503	193742	1.78	197245
61	3659	191524	1.87	195183
62	3582	188049	1.87	191631
63	3415	185309	1.81	188724
64	3457	182970	1.85	186427
65	3578	181159	1.94	184737
66	3732	178596	2.05	182328
67	3494	176560	1.94	180054
68	3434	175179	1.92	178613

CpG context (R2)
================
position	count methylated	count unmethylated	% methylation	coverage
1	9784	5807	62.75	15591
2	10775	6339	62.96	17114
3	16167	6613	70.97	22780
4	9338	4725	66.40	14063
5	10794	4924	68.67	15718
6	11044	4808	69.67	15852
7	12653	4898	72.09	17551
8	10490	4782	68.69	15272
9	10279	4655	68.83	14934
10	12809	4755	72.93	17564
11	10844	4535	70.51	15379
12	13038	4970	72.40	18008
13	11832	4440	72.71	16272
14	12935	4411	74.57	17346
15	9785	4668	67.70	14453
16	10328	4565	69.35	14893
17	13004	4920	72.55	17924
18	11298	4598	71.07	15896
19	16492	4918	77.03	21410
20	10984	4014	73.24	14998
21	12327	4409	73.66	16736
22	10621	4130	72.00	14751
23	14504	4347	76.94	18851
24	10015	3740	72.81	13755
25	10804	3918	73.39	14722
26	9750	4315	69.32	14065
27	15531	4212	78.67	19743
28	9581	3656	72.38	13237
29	14191	4015	77.95	18206
30	10377	3599	74.25	13976
31	11417	3837	74.85	15254
32	9831	3681	72.76	13512
33	13305	4023	76.78	17328
34	9982	3729	72.80	13711
35	13802	4008	77.50	17810
36	8511	3078	73.44	11589
37	9857	3620	73.14	13477
38	8531	3104	73.32	11635
39	12018	3506	77.42	15524
40	8376	3206	72.32	11582
41	9609	3195	75.05	12804
42	8564	3414	71.50	11978
43	10565	3439	75.44	14004
44	7962	3011	72.56	10973
45	7795	2900	72.88	10695
46	8061	3021	72.74	11082
47	9693	3296	74.62	12989
48	6858	2674	71.95	9532
49	8568	3083	73.54	11651
50	7369	3133	70.17	10502
51	8870	2981	74.85	11851
52	6641	2533	72.39	9174
53	8167	2782	74.59	10949
54	6941	2774	71.45	9715
55	6857	2979	69.71	9836
56	6566	2565	71.91	9131
57	8015	2510	76.15	10525
58	6764	2444	73.46	9208
59	8181	2535	76.34	10716
60	6053	2566	70.23	8619
61	8070	2633	75.40	10703
62	6146	2332	72.49	8478
63	6382	2449	72.27	8831
64	5607	2161	72.18	7768
65	7008	2512	73.61	9520
66	5695	2356	70.74	8051
67	6265	2284	73.28	8549
68	5408	2190	71.18	7598

CHG context (R2)
================
position	count methylated	count unmethylated	% methylation	coverage
1	900	125354	0.71	126254
2	630	77245	0.81	77875
3	768	90233	0.84	91001
4	691	73656	0.93	74347
5	818	68075	1.19	68893
6	704	69018	1.01	69722
7	720	63022	1.13	63742
8	823	66171	1.23	66994
9	627	62620	0.99	63247
10	734	60631	1.20	61365
11	1014	77034	1.30	78048
12	643	60960	1.04	61603
13	732	54611	1.32	55343
14	853	67255	1.25	68108
15	918	59317	1.52	60235
16	792	57751	1.35	58543
17	833	52482	1.56	53315
18	1026	57143	1.76	58169
19	790	62750	1.24	63540
20	757	76384	0.98	77141
21	505	50229	1.00	50734
22	671	58028	1.14	58699
23	832	47588	1.72	48420
24	694	50401	1.36	51095
25	583	45305	1.27	45888
26	778	45535	1.68	46313
27	585	48983	1.18	49568
28	746	55745	1.32	56491
29	703	47014	1.47	47717
30	628	43926	1.41	44554
31	549	43063	1.26	43612
32	691	41435	1.64	42126
33	757	48427	1.54	49184
34	690	45890	1.48	46580
35	552	46756	1.17	47308
36	574	41028	1.38	41602
37	588	48367	1.20	48955
38	622	48712	1.26	49334
39	534	45188	1.17	45722
40	614	46023	1.32	46637
41	570	40340	1.39	40910
42	517	37141	1.37	37658
43	533	41813	1.26	42346
44	749	46228	1.59	46977
45	528	34653	1.50	35181
46	527	39841	1.31	40368
47	451	37895	1.18	38346
48	449	36669	1.21	37118
49	463	32629	1.40	33092
50	529	34014	1.53	34543
51	456	34520	1.30	34976
52	446	34964	1.26	35410
53	461	31200	1.46	31661
54	507	30511	1.63	31018
55	417	29394	1.40	29811
56	546	29720	1.80	30266
57	400	29929	1.32	30329
58	432	29646	1.44	30078
59	650	32372	1.97	33022
60	387	27178	1.40	27565
61	401	27163	1.45	27564
62	444	27892	1.57	28336
63	381	27743	1.35	28124
64	430	27242	1.55	27672
65	404	27275	1.46	27679
66	387	28631	1.33	29018
67	431	26064	1.63	26495
68	388	30113	1.27	30501

CHH context (R2)
================
position	count methylated	count unmethylated	% methylation	coverage
1	2199	95940	2.24	98139
2	3009	162869	1.81	165878
3	2663	164256	1.60	166919
4	2829	156539	1.78	159368
5	3162	178005	1.75	181167
6	2783	168541	1.62	171324
7	2941	164144	1.76	167085
8	3169	171743	1.81	174912
9	2717	152801	1.75	155518
10	3050	152651	1.96	155701
11	3237	154153	2.06	157390
12	2840	168224	1.66	171064
13	2638	163269	1.59	165907
14	2679	142661	1.84	145340
15	2275	144044	1.55	146319
16	2353	148492	1.56	150845
17	2308	138132	1.64	140440
18	2066	125516	1.62	127582
19	2928	140242	2.05	143170
20	2929	142840	2.01	145769
21	2881	162109	1.75	164990
22	2700	123023	2.15	125723
23	3005	126102	2.33	129107
24	2546	124004	2.01	126550
25	2883	136353	2.07	139236
26	2386	116779	2.00	119165
27	2164	132460	1.61	134624
28	1741	115766	1.48	117507
29	2073	123187	1.65	125260
30	2027	113456	1.76	115483
31	1820	119941	1.49	121761
32	1893	112579	1.65	114472
33	1738	108959	1.57	110697
34	2055	113241	1.78	115296
35	2136	112844	1.86	114980
36	1702	102313	1.64	104015
37	2086	105715	1.94	107801
38	1952	106240	1.80	108192
39	2148	106256	1.98	108404
40	1931	104297	1.82	106228
41	2271	95760	2.32	98031
42	1906	95579	1.96	97485
43	1816	98900	1.80	100716
44	2035	99543	2.00	101578
45	2186	98883	2.16	101069
46	2085	89987	2.26	92072
47	2160	93752	2.25	95912
48	2325	89407	2.53	91732
49	2620	91937	2.77	94557
50	2294	88080	2.54	90374
51	1827	90554	1.98	92381
52	1457	84970	1.69	86427
53	2196	93848	2.29	96044
54	2244	81608	2.68	83852
55	2218	82156	2.63	84374
56	1980	86000	2.25	87980
57	1588	79444	1.96	81032
58	1566	79925	1.92	81491
59	1826	80827	2.21	82653
60	1568	79699	1.93	81267
61	1583	79656	1.95	81239
62	1802	73293	2.40	75095
63	1878	72573	2.52	74451
64	1774	74489	2.33	76263
65	1634	70733	2.26	72367
66	1359	71095	1.88	72454
67	1709	69901	2.39	71610
68	1488	69101	2.11	70589

