(di-)nucleotide	count sample	percent sample	count genomic	percent genomic	coverage
A	10586383	24.69	5124	30.93	2066.039
C	5417544	12.63	5181	31.27	1045.656
G	13672330	31.88	2169	13.09	6303.518
T	13207029	30.80	4094	24.71	3225.947
AA	2412636	5.71	1604	9.68	1504.137
AC	982063	2.33	1495	9.02	656.898
AG	3824029	9.05	795	4.80	4810.099
AT	3236675	7.66	1230	7.42	2631.443
CA	1277438	3.02	1534	9.26	832.750
CC	1056282	2.50	1771	10.69	596.433
CG	1090966	2.58	435	2.63	2507.968
CT	1918009	4.54	1440	8.69	1331.951
GA	3247765	7.69	613	3.70	5298.148
GC	1830222	4.33	711	4.29	2574.152
GG	4493064	10.64	425	2.57	10571.915
GT	3881046	9.19	419	2.53	9262.640
TA	3467597	8.21	1373	8.29	2525.562
TC	1464359	3.47	1204	7.27	1216.245
TG	4062066	9.62	513	3.10	7918.257
TT	3991928	9.45	1004	6.06	3976.024
