(di-)nucleotide	count sample	percent sample	count genomic	percent genomic	coverage
A	3704136	24.74	5124	30.93	722.899
C	1906776	12.74	5181	31.27	368.032
G	4724627	31.56	2169	13.09	2178.251
T	4635930	30.97	4094	24.71	1132.372
AA	837653	5.68	1604	9.68	522.228
AC	344146	2.33	1495	9.02	230.198
AG	1340379	9.09	795	4.80	1686.011
AT	1136001	7.71	1230	7.42	923.578
CA	455918	3.09	1534	9.26	297.209
CC	384016	2.61	1771	10.69	216.836
CG	364221	2.47	435	2.63	837.290
CT	676875	4.59	1440	8.69	470.052
GA	1127710	7.65	613	3.70	1839.657
GC	634600	4.31	711	4.29	892.546
GG	1539340	10.44	425	2.57	3621.976
GT	1341827	9.10	419	2.53	3202.451
TA	1218304	8.27	1373	8.29	887.330
TC	513664	3.48	1204	7.27	426.631
TG	1409411	9.56	513	3.10	2747.390
TT	1416241	9.61	1004	6.06	1410.599
