(di-)nucleotide	count sample	percent sample	count genomic	percent genomic	coverage
A	5155563	25.43	5124	30.93	1006.160
C	2957213	14.59	5181	31.27	570.780
G	6008899	29.64	2169	13.09	2770.355
T	6151871	30.34	4094	24.71	1502.655
AA	1214750	6.09	1604	9.68	757.325
AC	599295	3.00	1495	9.02	400.866
AG	1735944	8.70	795	4.80	2183.577
AT	1539565	7.71	1230	7.42	1251.679
CA	737656	3.70	1534	9.26	480.871
CC	667983	3.35	1771	10.69	377.178
CG	505803	2.53	435	2.63	1162.766
CT	1005116	5.04	1440	8.69	697.997
GA	1452315	7.28	613	3.70	2369.192
GC	866523	4.34	711	4.29	1218.738
GG	1907784	9.56	425	2.57	4488.904
GT	1682191	8.43	419	2.53	4014.776
TA	1660105	8.32	1373	8.29	1209.108
TC	776689	3.89	1204	7.27	645.091
TG	1769785	8.87	513	3.10	3449.873
TT	1840400	9.22	1004	6.06	1833.068
