(di-)nucleotide	count sample	percent sample	count genomic	percent genomic	coverage
A	1463124	25.51	5124	30.93	285.543
C	900554	15.70	5181	31.27	173.819
G	1647785	28.73	2169	13.09	759.698
T	1723207	30.05	4094	24.71	420.910
AA	348049	6.16	1604	9.68	216.988
AC	188776	3.34	1495	9.02	126.272
AG	476978	8.45	795	4.80	599.972
AT	430517	7.62	1230	7.42	350.014
CA	223590	3.96	1534	9.26	145.756
CC	218794	3.87	1771	10.69	123.543
CG	144833	2.56	435	2.63	332.949
CT	301278	5.33	1440	8.69	209.221
GA	398847	7.06	613	3.70	650.648
GC	247981	4.39	711	4.29	348.778
GG	521505	9.23	425	2.57	1227.071
GT	452249	8.01	419	2.53	1079.353
TA	467378	8.28	1373	8.29	340.406
TC	230867	4.09	1204	7.27	191.750
TG	480476	8.51	513	3.10	936.600
TT	515237	9.12	1004	6.06	513.184
